cpu_tb.vcd
$date
	Thu Sep 25 21:16:37 2025
$end
$version
	Icarus Verilog
$end
$timescale
	1ps
$end
$scope module cpu_tb $end
$var wire 32 ! RF10 [31:0] $end
$var wire 32 " RF12 [31:0] $end
$var wire 32 # RF13 [31:0] $end
$var wire 32 $ RF15 [31:0] $end
$var wire 32 % RF24 [31:0] $end
$var wire 32 & RF8 [31:0] $end
$var wire 32 ' RF9 [31:0] $end
$var wire 32 ( instr [31:0] $end
$var reg 1 ) clk $end
$scope module uut $end
$var wire 1 * branch_taken $end
$var wire 1 ) clk $end
$var wire 32 + instr [31:0] $end
$var wire 32 , writedata_ex [31:0] $end
$var wire 5 - writereg_wb [4:0] $end
$var wire 5 . writereg_mem [4:0] $end
$var wire 5 / writereg_ex [4:0] $end
$var wire 32 0 writedata_mem [31:0] $end
$var wire 5 1 shamt_id [4:0] $end
$var wire 5 2 rt_id [4:0] $end
$var wire 5 3 rt_ex [4:0] $end
$var wire 5 4 rs_id [4:0] $end
$var wire 32 5 readdata_wb [31:0] $end
$var wire 32 6 readdata_mem [31:0] $end
$var wire 32 7 readdata2_id [31:0] $end
$var wire 32 8 readdata2_ex [31:0] $end
$var wire 32 9 readdata1_id [31:0] $end
$var wire 32 : readdata1_ex [31:0] $end
$var wire 5 ; rd_id [4:0] $end
$var wire 5 < rd_ex [4:0] $end
$var wire 2 = pcsrc_if [1:0] $end
$var wire 32 > pc_plus4_if [31:0] $end
$var wire 32 ? pc_plus4_id [31:0] $end
$var wire 32 @ pc_plus4_ex [31:0] $end
$var wire 32 A operand2 [31:0] $end
$var wire 6 B opcode_id [5:0] $end
$var wire 32 C next_pc_if [31:0] $end
$var wire 26 D jump_addr_id [25:0] $end
$var wire 32 E instr_if [31:0] $end
$var wire 32 F instr_id [31:0] $end
$var wire 32 G imm32_id [31:0] $end
$var wire 32 H imm32_ex [31:0] $end
$var wire 16 I imm16_id [15:0] $end
$var wire 6 J funct_id [5:0] $end
$var wire 6 K funct_ex [5:0] $end
$var wire 32 L datatowritereg [31:0] $end
$var wire 1 M ctrl_zero_mem $end
$var wire 1 N ctrl_zero_ex $end
$var wire 1 O ctrl_regwrite_wb $end
$var wire 1 P ctrl_regwrite_mem $end
$var wire 1 Q ctrl_regwrite_id $end
$var wire 1 R ctrl_regwrite_ex $end
$var wire 1 S ctrl_regdst_id $end
$var wire 1 T ctrl_regdst_ex $end
$var wire 1 U ctrl_memwrite_mem $end
$var wire 1 V ctrl_memwrite_id $end
$var wire 1 W ctrl_memwrite_ex $end
$var wire 1 X ctrl_memtoreg_wb $end
$var wire 1 Y ctrl_memtoreg_mem $end
$var wire 1 Z ctrl_memtoreg_id $end
$var wire 1 [ ctrl_memtoreg_ex $end
$var wire 1 \ ctrl_memread_mem $end
$var wire 1 ] ctrl_memread_id $end
$var wire 1 ^ ctrl_memread_ex $end
$var wire 1 _ ctrl_jump_id $end
$var wire 1 ` ctrl_branch_mem $end
$var wire 1 a ctrl_branch_id $end
$var wire 1 b ctrl_branch_ex $end
$var wire 1 c ctrl_alusrc_id $end
$var wire 1 d ctrl_alusrc_ex $end
$var wire 2 e ctrl_aluop_id [1:0] $end
$var wire 2 f ctrl_aluop_ex [1:0] $end
$var wire 4 g ctrl_aluctrl_ex [3:0] $end
$var wire 32 h branch_target_mem [31:0] $end
$var wire 32 i branch_target_ex [31:0] $end
$var wire 32 j aluout_wb [31:0] $end
$var wire 32 k aluout_mem [31:0] $end
$var wire 32 l aluout_ex [31:0] $end
$var parameter 2 m PCSRC_BRANCH $end
$var parameter 2 n PCSRC_PLUS4 $end
$var parameter 32 o RESET_PC $end
$var reg 32 p pc_if [31:0] $end
$scope module sext $end
$var wire 32 q imm32_id [31:0] $end
$var wire 16 r imm16_id [15:0] $end
$upscope $end
$scope module u_alu $end
$var wire 32 s operand2 [31:0] $end
$var wire 32 t operand1 [31:0] $end
$var wire 1 N ctrl_zero_ex $end
$var wire 4 u ctrl_aluctrl_ex [3:0] $end
$var reg 32 v aluout_ex [31:0] $end
$upscope $end
$scope module u_aluctrl $end
$var wire 6 w funct_ex [5:0] $end
$var wire 2 x ctrl_aluop_ex [1:0] $end
$var reg 4 y ctrl_aluctrl_ex [3:0] $end
$upscope $end
$scope module u_btadd $end
$var wire 32 z pc_plus4_ex [31:0] $end
$var wire 32 { imm32_ex [31:0] $end
$var wire 32 | imm32_2sl [31:0] $end
$var reg 32 } branch_target_ex [31:0] $end
$upscope $end
$scope module u_dec $end
$var wire 5 ~ shamt_id [4:0] $end
$var wire 5 !" rt_id [4:0] $end
$var wire 5 "" rs_id [4:0] $end
$var wire 5 #" rd_id [4:0] $end
$var wire 6 $" opcode_id [5:0] $end
$var wire 26 %" jump_addr_id [25:0] $end
$var wire 32 &" instr_id [31:0] $end
$var wire 16 '" imm16_id [15:0] $end
$var wire 6 (" funct_id [5:0] $end
$upscope $end
$scope module u_dmem $end
$var wire 1 ) clk $end
$var wire 32 )" writedata_mem [31:0] $end
$var wire 32 *" readdata_mem [31:0] $end
$var wire 1 U ctrl_memwrite_mem $end
$var wire 1 \ ctrl_memread_mem $end
$var wire 32 +" aluout_mem [31:0] $end
$upscope $end
$scope module u_exmem $end
$var wire 32 ," aluout_ex [31:0] $end
$var wire 32 -" branch_target_ex [31:0] $end
$var wire 1 ) clk $end
$var wire 1 N ctrl_zero_ex $end
$var wire 32 ." writedata_ex [31:0] $end
$var wire 5 /" writereg_ex [4:0] $end
$var wire 1 R ctrl_regwrite_ex $end
$var wire 1 W ctrl_memwrite_ex $end
$var wire 1 [ ctrl_memtoreg_ex $end
$var wire 1 ^ ctrl_memread_ex $end
$var wire 1 b ctrl_branch_ex $end
$var reg 32 0" aluout_mem [31:0] $end
$var reg 32 1" branch_target_mem [31:0] $end
$var reg 1 ` ctrl_branch_mem $end
$var reg 1 \ ctrl_memread_mem $end
$var reg 1 Y ctrl_memtoreg_mem $end
$var reg 1 U ctrl_memwrite_mem $end
$var reg 1 P ctrl_regwrite_mem $end
$var reg 1 M ctrl_zero_mem $end
$var reg 32 2" writedata_mem [31:0] $end
$var reg 5 3" writereg_mem [4:0] $end
$upscope $end
$scope module u_idex $end
$var wire 1 ) clk $end
$var wire 6 4" funct_id [5:0] $end
$var wire 32 5" imm32_id [31:0] $end
$var wire 5 6" rd_id [4:0] $end
$var wire 5 7" rt_id [4:0] $end
$var wire 32 8" readdata2_id [31:0] $end
$var wire 32 9" readdata1_id [31:0] $end
$var wire 32 :" pc_plus4_id [31:0] $end
$var wire 1 Q ctrl_regwrite_id $end
$var wire 1 S ctrl_regdst_id $end
$var wire 1 V ctrl_memwrite_id $end
$var wire 1 Z ctrl_memtoreg_id $end
$var wire 1 ] ctrl_memread_id $end
$var wire 1 a ctrl_branch_id $end
$var wire 1 c ctrl_alusrc_id $end
$var wire 2 ;" ctrl_aluop_id [1:0] $end
$var reg 2 <" ctrl_aluop_ex [1:0] $end
$var reg 1 d ctrl_alusrc_ex $end
$var reg 1 b ctrl_branch_ex $end
$var reg 1 ^ ctrl_memread_ex $end
$var reg 1 [ ctrl_memtoreg_ex $end
$var reg 1 W ctrl_memwrite_ex $end
$var reg 1 T ctrl_regdst_ex $end
$var reg 1 R ctrl_regwrite_ex $end
$var reg 6 =" funct_ex [5:0] $end
$var reg 32 >" imm32_ex [31:0] $end
$var reg 32 ?" pc_plus4_ex [31:0] $end
$var reg 5 @" rd_ex [4:0] $end
$var reg 32 A" readdata1_ex [31:0] $end
$var reg 32 B" readdata2_ex [31:0] $end
$var reg 5 C" rt_ex [4:0] $end
$upscope $end
$scope module u_ifid $end
$var wire 1 ) clk $end
$var wire 32 D" pc_plus4_if [31:0] $end
$var wire 32 E" instr_if [31:0] $end
$var reg 32 F" instr_id [31:0] $end
$var reg 32 G" pc_plus4_id [31:0] $end
$upscope $end
$scope module u_imem $end
$var wire 32 H" pc_if [31:0] $end
$var reg 32 I" instr_if [31:0] $end
$upscope $end
$scope module u_mcu $end
$var wire 6 J" opcode_id [5:0] $end
$var reg 2 K" ctrl_aluop_id [1:0] $end
$var reg 1 c ctrl_alusrc_id $end
$var reg 1 a ctrl_branch_id $end
$var reg 1 _ ctrl_jump_id $end
$var reg 1 ] ctrl_memread_id $end
$var reg 1 Z ctrl_memtoreg_id $end
$var reg 1 V ctrl_memwrite_id $end
$var reg 1 S ctrl_regdst_id $end
$var reg 1 Q ctrl_regwrite_id $end
$upscope $end
$scope module u_memwb $end
$var wire 32 L" aluout_mem [31:0] $end
$var wire 1 ) clk $end
$var wire 1 Y ctrl_memtoreg_mem $end
$var wire 1 P ctrl_regwrite_mem $end
$var wire 32 M" readdata_mem [31:0] $end
$var wire 5 N" writereg_mem [4:0] $end
$var reg 32 O" aluout_wb [31:0] $end
$var reg 1 X ctrl_memtoreg_wb $end
$var reg 1 O ctrl_regwrite_wb $end
$var reg 32 P" readdata_wb [31:0] $end
$var reg 5 Q" writereg_wb [4:0] $end
$upscope $end
$scope module u_rf $end
$var wire 1 ) clk $end
$var wire 1 O ctrl_regwrite_wb $end
$var wire 32 R" datatowritereg [31:0] $end
$var wire 32 S" readdata1_id [31:0] $end
$var wire 32 T" readdata2_id [31:0] $end
$var wire 5 U" rs_id [4:0] $end
$var wire 5 V" rt_id [4:0] $end
$var wire 5 W" writereg_wb [4:0] $end
$upscope $end
$upscope $end
$upscope $end
$enddefinitions $end
$comment Show the parameter values. $end
$dumpall
b0 o
b0 n
b1 m
$end
#0
$dumpvars
bx W"
bx V"
bx U"
bx T"
bx S"
bx R"
bx Q"
bx P"
bx O"
bx N"
bx M"
bx L"
bx K"
bx J"
b100000000010010000000000000010 I"
b0 H"
bx G"
bx F"
b100000000010010000000000000010 E"
b100 D"
bx C"
bx B"
bx A"
bx @"
bx ?"
bx >"
bx ="
bx <"
bx ;"
bx :"
bx 9"
bx 8"
bx 7"
bx 6"
bx 5"
bx 4"
bx 3"
bx 2"
bx 1"
bx 0"
bx /"
bx ."
bx -"
bx ,"
bx +"
bx *"
bx )"
bx ("
bx '"
bx &"
bx %"
bx $"
bx #"
bx ""
bx !"
bx ~
bx }
bx00 |
bx {
bx z
bx y
bx x
bx w
bx v
bx u
bx t
bx s
bx r
bx q
b0 p
bx l
bx k
bx j
bx i
bx h
bx g
bx f
bx e
xd
xc
xb
xa
x`
x_
x^
x]
x\
x[
xZ
xY
xX
xW
xV
xU
xT
xS
xR
xQ
xP
xO
xN
xM
bx L
bx K
bx J
bx I
bx H
bx G
bx F
b100000000010010000000000000010 E
bx D
b100 C
bx B
bx A
bx @
bx ?
b100 >
b0 =
bx <
bx ;
bx :
bx 9
bx 8
bx 7
bx 6
bx 5
bx 4
bx 3
bx 2
bx 1
bx 0
bx /
bx .
bx -
bx ,
bx +
0*
0)
bx (
b1010 '
b0 &
b1111000011110000111100001111 %
b11111111111111110000000011111111 $
b111 #
b1100100 "
b10100 !
$end
#50000
b0 e
b0 ;"
b0 K"
1Q
1c
0V
0Z
0]
0a
0_
0S
b10010000000000000010 D
b10010000000000000010 %"
b10 G
b10 q
b10 5"
b10 I
b10 r
b10 '"
b10 J
b10 ("
b10 4"
b0 1
b0 ~
b0 ;
b0 #"
b0 6"
b1010 7
b1010 8"
b1010 T"
b1001 2
b1001 !"
b1001 7"
b1001 V"
b0 9
b0 9"
b0 S"
b0 4
b0 ""
b0 U"
b1000 B
b1000 $"
b1000 J"
b1000 C
b1001010100101100000100000 E
b1001010100101100000100000 E"
b1001010100101100000100000 I"
b100000000010010000000000000010 (
b100000000010010000000000000010 +
b100000000010010000000000000010 F
b100000000010010000000000000010 &"
b100000000010010000000000000010 F"
b100 ?
b100 :"
b100 G"
b1000 >
b1000 D"
b100 p
b100 H"
1)
#100000
0)
#150000
b1100 i
b1100 }
b1100 -"
b10 e
b10 ;"
b10 K"
1S
1Q
0c
b1100 C
b1100011010101100000100010 E
b1100011010101100000100010 E"
b1100011010101100000100010 I"
b1000 |
0N
b10 l
b10 v
b10 ,"
b10 A
b10 s
b10 g
b10 u
b10 y
b1001 /
b1001 /"
b1001010100101100000100000 D
b1001010100101100000100000 %"
b101100000100000 G
b101100000100000 q
b101100000100000 5"
b101100000100000 I
b101100000100000 r
b101100000100000 '"
b100000 J
b100000 ("
b100000 4"
b1011 ;
b1011 #"
b1011 6"
b10100 7
b10100 8"
b10100 T"
b1010 2
b1010 !"
b1010 7"
b1010 V"
b1010 9
b1010 9"
b1010 S"
b1001 4
b1001 ""
b1001 U"
b0 B
b0 $"
b0 J"
b1100 >
b1100 D"
b1000 p
b1000 H"
b0 <
b0 @"
b1001 3
b1001 C"
b10 K
b10 w
b10 ="
b10 H
b10 {
b10 >"
b1010 ,
b1010 ."
b1010 8
b1010 B"
b0 :
b0 t
b0 A"
b100 @
b100 z
b100 ?"
1R
1d
0W
b0 f
b0 x
b0 <"
0[
0^
0b
0T
b1001010100101100000100000 (
b1001010100101100000100000 +
b1001010100101100000100000 F
b1001010100101100000100000 &"
b1001010100101100000100000 F"
b1000 ?
b1000 :"
b1000 G"
1)
#200000
0)
#250000
b1100011010101100000100010 D
b1100011010101100000100010 %"
b101100000100010 G
b101100000100010 q
b101100000100010 5"
b101100000100010 I
b101100000100010 r
b101100000100010 '"
b100010 J
b100010 ("
b100010 4"
b111 7
b111 8"
b111 T"
b1101 2
b1101 !"
b1101 7"
b1101 V"
b1100100 9
b1100100 9"
b1100100 S"
b1100 4
b1100 ""
b1100 U"
b10110000010000000 |
b11110 l
b11110 v
b11110 ,"
b10110000010001000 i
b10110000010001000 }
b10110000010001000 -"
b10100 A
b10100 s
b1011 /
b1011 /"
b0 6
b0 *"
b0 M"
b10000 C
b1111110000111000000100100 E
b1111110000111000000100100 E"
b1111110000111000000100100 I"
b1100011010101100000100010 (
b1100011010101100000100010 +
b1100011010101100000100010 F
b1100011010101100000100010 &"
b1100011010101100000100010 F"
b1100 ?
b1100 :"
b1100 G"
b1011 <
b1011 @"
b1010 3
b1010 C"
b100000 K
b100000 w
b100000 ="
b101100000100000 H
b101100000100000 {
b101100000100000 >"
b10100 ,
b10100 ."
b10100 8
b10100 B"
b1010 :
b1010 t
b1010 A"
b1000 @
b1000 z
b1000 ?"
0d
b10 f
b10 x
b10 <"
1T
b1001 .
b1001 3"
b1001 N"
b1010 0
b1010 )"
b1010 2"
b10 k
b10 +"
b10 0"
b10 L"
0M
b1100 h
b1100 1"
1P
0U
0Y
0\
0`
b10000 >
b10000 D"
b1100 p
b1100 H"
1)
#300000
0)
#350000
b10100 C
b1001010101100100000100101 E
b1001010101100100000100101 E"
b1001010101100100000100101 I"
b10 L
b10 R"
b110 g
b110 u
b110 y
b10110000010001000 |
b111 A
b111 s
b1011101 l
b1011101 v
b1011101 ,"
b10110000010010100 i
b10110000010010100 }
b10110000010010100 -"
b1111110000111000000100100 D
b1111110000111000000100100 %"
b111000000100100 G
b111000000100100 q
b111000000100100 5"
b111000000100100 I
b111000000100100 r
b111000000100100 '"
b100100 J
b100100 ("
b100100 4"
b1110 ;
b1110 #"
b1110 6"
b1111000011110000111100001111 7
b1111000011110000111100001111 8"
b1111000011110000111100001111 T"
b11000 2
b11000 !"
b11000 7"
b11000 V"
b11111111111111110000000011111111 9
b11111111111111110000000011111111 9"
b11111111111111110000000011111111 S"
b1111 4
b1111 ""
b1111 U"
b10100 >
b10100 D"
b10000 p
b10000 H"
b1001 -
b1001 Q"
b1001 W"
b10 j
b10 O"
b0 5
b0 P"
1O
0X
b1011 .
b1011 3"
b1011 N"
b10100 0
b10100 )"
b10100 2"
b11110 k
b11110 +"
b11110 0"
b11110 L"
b10110000010001000 h
b10110000010001000 1"
b1101 3
b1101 C"
b100010 K
b100010 w
b100010 ="
b101100000100010 H
b101100000100010 {
b101100000100010 >"
b111 ,
b111 ."
b111 8
b111 B"
b1100100 :
b1100100 t
b1100100 A"
b1100 @
b1100 z
b1100 ?"
b1111110000111000000100100 (
b1111110000111000000100100 +
b1111110000111000000100100 F
b1111110000111000000100100 &"
b1111110000111000000100100 F"
b10000 ?
b10000 :"
b10000 G"
1)
#400000
0)
#450000
b1001010101100100000100101 D
b1001010101100100000100101 %"
b11111111111111111100100000100101 G
b11111111111111111100100000100101 q
b11111111111111111100100000100101 5"
b1100100000100101 I
b1100100000100101 r
b1100100000100101 '"
b100101 J
b100101 ("
b100101 4"
b11001 ;
b11001 #"
b11001 6"
b10100 7
b10100 8"
b10100 T"
b1010 2
b1010 !"
b1010 7"
b1010 V"
b10 9
b10 9"
b10 S"
b1001 4
b1001 ""
b1001 U"
b1110 /
b1110 /"
b0 g
b0 u
b0 y
b11100000010010000 |
b1111000011110000111100001111 A
b1111000011110000111100001111 s
b1111000011110000000000001111 l
b1111000011110000000000001111 v
b1111000011110000000000001111 ,"
b11100000010100000 i
b11100000010100000 }
b11100000010100000 -"
b11110 L
b11110 R"
b11000 C
b10101101000010010000000000000000 E
b10101101000010010000000000000000 E"
b10101101000010010000000000000000 I"
b1001010101100100000100101 (
b1001010101100100000100101 +
b1001010101100100000100101 F
b1001010101100100000100101 &"
b1001010101100100000100101 F"
b10100 ?
b10100 :"
b10100 G"
b10 '
b1110 <
b1110 @"
b11000 3
b11000 C"
b100100 K
b100100 w
b100100 ="
b111000000100100 H
b111000000100100 {
b111000000100100 >"
b1111000011110000111100001111 ,
b1111000011110000111100001111 ."
b1111000011110000111100001111 8
b1111000011110000111100001111 B"
b11111111111111110000000011111111 :
b11111111111111110000000011111111 t
b11111111111111110000000011111111 A"
b10000 @
b10000 z
b10000 ?"
b111 0
b111 )"
b111 2"
b1011101 k
b1011101 +"
b1011101 0"
b1011101 L"
b10110000010010100 h
b10110000010010100 1"
b1011 -
b1011 Q"
b1011 W"
b11110 j
b11110 O"
b11000 >
b11000 D"
b10100 p
b10100 H"
1)
#500000
0)
#550000
1V
1c
b0 e
b0 ;"
b0 K"
0Q
0S
b11100 C
b10001101000110000000000000000000 E
b10001101000110000000000000000000 E"
b10001101000110000000000000000000 I"
b1011101 L
b1011101 R"
b11001 /
b11001 /"
b1 g
b1 u
b1 y
b11111111111111110010000010010100 |
b10100 A
b10100 s
b10110 l
b10110 v
b10110 ,"
b11111111111111110010000010101000 i
b11111111111111110010000010101000 }
b11111111111111110010000010101000 -"
b1000010010000000000000000 D
b1000010010000000000000000 %"
b0 G
b0 q
b0 5"
b0 I
b0 r
b0 '"
b0 J
b0 ("
b0 4"
b0 ;
b0 #"
b0 6"
b10 7
b10 8"
b10 T"
b1001 2
b1001 !"
b1001 7"
b1001 V"
b0 9
b0 9"
b0 S"
b1000 4
b1000 ""
b1000 U"
b101011 B
b101011 $"
b101011 J"
b11100 >
b11100 D"
b11000 p
b11000 H"
b1011101 j
b1011101 O"
b1110 .
b1110 3"
b1110 N"
b1111000011110000111100001111 0
b1111000011110000111100001111 )"
b1111000011110000111100001111 2"
b1111000011110000000000001111 k
b1111000011110000000000001111 +"
b1111000011110000000000001111 0"
b1111000011110000000000001111 L"
b11100000010100000 h
b11100000010100000 1"
b11001 <
b11001 @"
b1010 3
b1010 C"
b100101 K
b100101 w
b100101 ="
b11111111111111111100100000100101 H
b11111111111111111100100000100101 {
b11111111111111111100100000100101 >"
b10100 ,
b10100 ."
b10100 8
b10100 B"
b10 :
b10 t
b10 A"
b10100 @
b10100 z
b10100 ?"
b10101101000010010000000000000000 (
b10101101000010010000000000000000 +
b10101101000010010000000000000000 F
b10101101000010010000000000000000 &"
b10101101000010010000000000000000 F"
b11000 ?
b11000 :"
b11000 G"
1)
#600000
0)
#650000
1]
1Q
1Z
1c
0V
b1000110000000000000000000 D
b1000110000000000000000000 %"
b1111000011110000111100001111 7
b1111000011110000111100001111 8"
b1111000011110000111100001111 T"
b11000 2
b11000 !"
b11000 7"
b11000 V"
b100011 B
b100011 $"
b100011 J"
b0 |
1N
b0 l
b0 v
b0 ,"
b11000 i
b11000 }
b11000 -"
b0 A
b0 s
b10 g
b10 u
b10 y
b1001 /
b1001 /"
b1111000011110000000000001111 L
b1111000011110000000000001111 R"
b100000 C
b100001001010011111111111111111 E
b100001001010011111111111111111 E"
b100001001010011111111111111111 I"
b10001101000110000000000000000000 (
b10001101000110000000000000000000 +
b10001101000110000000000000000000 F
b10001101000110000000000000000000 &"
b10001101000110000000000000000000 F"
b11100 ?
b11100 :"
b11100 G"
b0 <
b0 @"
b1001 3
b1001 C"
b0 K
b0 w
b0 ="
b0 H
b0 {
b0 >"
b10 ,
b10 ."
b10 8
b10 B"
b0 :
b0 t
b0 A"
b11000 @
b11000 z
b11000 ?"
0R
1d
1W
b0 f
b0 x
b0 <"
0T
b11001 .
b11001 3"
b11001 N"
b10100 0
b10100 )"
b10100 2"
b10110 k
b10110 +"
b10110 0"
b10110 L"
b11111111111111110010000010101000 h
b11111111111111110010000010101000 1"
b1110 -
b1110 Q"
b1110 W"
b1111000011110000000000001111 j
b1111000011110000000000001111 O"
b100000 >
b100000 D"
b11100 p
b11100 H"
1)
#700000
0)
#750000
1Q
1c
0Z
0]
b100100 C
b100011000110000000000000001010 E
b100011000110000000000000001010 E"
b100011000110000000000000001010 I"
b10110 L
b10110 R"
b11000 /
b11000 /"
b11100 i
b11100 }
b11100 -"
b1001010011111111111111111 D
b1001010011111111111111111 %"
b11111111111111111111111111111111 G
b11111111111111111111111111111111 q
b11111111111111111111111111111111 5"
b1111111111111111 I
b1111111111111111 r
b1111111111111111 '"
b111111 J
b111111 ("
b111111 4"
b11111 1
b11111 ~
b11111 ;
b11111 #"
b11111 6"
b10 7
b10 8"
b10 T"
b1001 2
b1001 !"
b1001 7"
b1001 V"
b10 9
b10 9"
b10 S"
b1001 4
b1001 ""
b1001 U"
b1000 B
b1000 $"
b1000 J"
b100100 >
b100100 D"
b100000 p
b100000 H"
b11001 -
b11001 Q"
b11001 W"
b10110 j
b10110 O"
b1001 .
b1001 3"
b1001 N"
b10 0
b10 )"
b10 2"
b0 k
b0 +"
b0 0"
b0 L"
1M
b11000 h
b11000 1"
0P
1U
b11000 3
b11000 C"
b1111000011110000111100001111 ,
b1111000011110000111100001111 ."
b1111000011110000111100001111 8
b1111000011110000111100001111 B"
b11100 @
b11100 z
b11100 ?"
1R
0W
1[
1^
b100001001010011111111111111111 (
b100001001010011111111111111111 +
b100001001010011111111111111111 F
b100001001010011111111111111111 &"
b100001001010011111111111111111 F"
b100000 ?
b100000 :"
b100000 G"
1)
#800000
0)
#850000
b11000110000000000000001010 D
b11000110000000000000001010 %"
b1010 G
b1010 q
b1010 5"
b1010 I
b1010 r
b1010 '"
b1010 J
b1010 ("
b1010 4"
b0 1
b0 ~
b0 ;
b0 #"
b0 6"
b1111000011110000111100001111 7
b1111000011110000111100001111 8"
b1111000011110000111100001111 T"
b11000 2
b11000 !"
b11000 7"
b11000 V"
b1111000011110000111100001111 9
b1111000011110000111100001111 9"
b1111000011110000111100001111 S"
b11000 4
b11000 ""
b11000 U"
b1001 /
b1001 /"
b11111111111111111111111111111100 |
b11111111111111111111111111111111 A
b11111111111111111111111111111111 s
0N
b1 l
b1 v
b1 ,"
b11100 i
b11100 }
b11100 -"
b10 6
b10 *"
b10 M"
b0 L
b0 R"
b101000 C
b10001001000000000000000000010 E
b10001001000000000000000000010 E"
b10001001000000000000000000010 I"
b100011000110000000000000001010 (
b100011000110000000000000001010 +
b100011000110000000000000001010 F
b100011000110000000000000001010 &"
b100011000110000000000000001010 F"
b100100 ?
b100100 :"
b100100 G"
b11111 <
b11111 @"
b1001 3
b1001 C"
b111111 K
b111111 w
b111111 ="
b11111111111111111111111111111111 H
b11111111111111111111111111111111 {
b11111111111111111111111111111111 >"
b10 ,
b10 ."
b10 8
b10 B"
b10 :
b10 t
b10 A"
b100000 @
b100000 z
b100000 ?"
0[
0^
b11000 .
b11000 3"
b11000 N"
b1111000011110000111100001111 0
b1111000011110000111100001111 )"
b1111000011110000111100001111 2"
b11100 h
b11100 1"
1P
0U
1Y
1\
b1001 -
b1001 Q"
b1001 W"
b0 j
b0 O"
0O
b101000 >
b101000 D"
b100100 p
b100100 H"
1)
#900000
0)
#950000
b1 e
b1 ;"
b1 K"
1a
0Q
0c
b101100 C
b10000000000001111111111110110 E
b10000000000001111111111110110 E"
b10000000000001111111111110110 I"
b10 L
b10 R"
b0 6
b0 *"
b0 M"
b11000 /
b11000 /"
b101000 |
b1010 A
b1010 s
b1111000011110000111100011001 l
b1111000011110000111100011001 v
b1111000011110000111100011001 ,"
b1001100 i
b1001100 }
b1001100 -"
b1001000000000000000000010 D
b1001000000000000000000010 %"
b10 G
b10 q
b10 5"
b10 I
b10 r
b10 '"
b10 J
b10 ("
b10 4"
b0 7
b0 8"
b0 T"
b0 2
b0 !"
b0 7"
b0 V"
b10 9
b10 9"
b10 S"
b1001 4
b1001 ""
b1001 U"
b100 B
b100 $"
b100 J"
b101100 >
b101100 D"
b101000 p
b101000 H"
b11000 -
b11000 Q"
b11000 W"
b10 5
b10 P"
1O
1X
b1001 .
b1001 3"
b1001 N"
b10 0
b10 )"
b10 2"
b1 k
b1 +"
b1 0"
b1 L"
0M
0Y
0\
b0 <
b0 @"
b11000 3
b11000 C"
b1010 K
b1010 w
b1010 ="
b1010 H
b1010 {
b1010 >"
b1111000011110000111100001111 ,
b1111000011110000111100001111 ."
b1111000011110000111100001111 8
b1111000011110000111100001111 B"
b1111000011110000111100001111 :
b1111000011110000111100001111 t
b1111000011110000111100001111 A"
b100100 @
b100100 z
b100100 ?"
b10001001000000000000000000010 (
b10001001000000000000000000010 +
b10001001000000000000000000010 F
b10001001000000000000000000010 &"
b10001001000000000000000000010 F"
b101000 ?
b101000 :"
b101000 G"
1)
#1000000
0)
#1050000
b1111111111110110 D
b1111111111110110 %"
b11111111111111111111111111110110 G
b11111111111111111111111111110110 q
b11111111111111111111111111110110 5"
b1111111111110110 I
b1111111111110110 r
b1111111111110110 '"
b110110 J
b110110 ("
b110110 4"
b11111 1
b11111 ~
b11111 ;
b11111 #"
b11111 6"
b0 9
b0 9"
b0 S"
b0 4
b0 ""
b0 U"
b0 /
b0 /"
b1000 |
b10 l
b10 v
b10 ,"
b110000 i
b110000 }
b110000 -"
b0 A
b0 s
b110 g
b110 u
b110 y
b1 L
b1 R"
b110000 C
bx E
bx E"
bx I"
b10000000000001111111111110110 (
b10000000000001111111111110110 +
b10000000000001111111111110110 F
b10000000000001111111111110110 &"
b10000000000001111111111110110 F"
b101100 ?
b101100 :"
b101100 G"
b10 %
b0 3
b0 C"
b10 K
b10 w
b10 ="
b10 H
b10 {
b10 >"
b0 ,
b0 ."
b0 8
b0 B"
b10 :
b10 t
b10 A"
b101000 @
b101000 z
b101000 ?"
0R
0d
b1 f
b1 x
b1 <"
1b
b11000 .
b11000 3"
b11000 N"
b1111000011110000111100001111 0
b1111000011110000111100001111 )"
b1111000011110000111100001111 2"
b1111000011110000111100011001 k
b1111000011110000111100011001 +"
b1111000011110000111100011001 0"
b1111000011110000111100011001 L"
b1001100 h
b1001100 1"
b1001 -
b1001 Q"
b1001 W"
b1 j
b1 O"
b0 5
b0 P"
0X
b110000 >
b110000 D"
b101100 p
b101100 H"
1)
#1100000
0)
#1150000
b0 e
b0 ;"
b0 K"
0a
b110100 C
b1111000011110000111100011001 L
b1111000011110000111100011001 R"
b11111111111111111111111111011000 |
1N
b0 l
b0 v
b0 ,"
b100 i
b100 }
b100 -"
bx D
bx %"
bx G
bx q
bx 5"
bx I
bx r
bx '"
bx J
bx ("
bx 4"
bx 1
bx ~
bx ;
bx #"
bx 6"
bx 7
bx 8"
bx T"
bx 2
bx !"
bx 7"
bx V"
bx 9
bx 9"
bx S"
bx 4
bx ""
bx U"
bx B
bx $"
bx J"
b110100 >
b110100 D"
b110000 p
b110000 H"
b11000 -
b11000 Q"
b11000 W"
b1111000011110000111100011001 j
b1111000011110000111100011001 O"
b0 .
b0 3"
b0 N"
b0 0
b0 )"
b0 2"
b10 k
b10 +"
b10 0"
b10 L"
b110000 h
b110000 1"
0P
1`
b11111 <
b11111 @"
b110110 K
b110110 w
b110110 ="
b11111111111111111111111111110110 H
b11111111111111111111111111110110 {
b11111111111111111111111111110110 >"
b0 :
b0 t
b0 A"
b101100 @
b101100 z
b101100 ?"
b1 '
bx (
bx +
bx F
bx &"
bx F"
b110000 ?
b110000 :"
b110000 G"
1)
#1200000
0)
#1250000
b1 =
bx /
bx /"
bx00 |
bx A
bx s
xN
bx l
bx v
bx ,"
bx i
bx }
bx -"
b10 g
b10 u
b10 y
1*
b10 L
b10 R"
b100 C
b110100 ?
b110100 :"
b110100 G"
b1111000011110000111100011001 %
bx <
bx @"
bx 3
bx C"
bx K
bx w
bx ="
bx H
bx {
bx >"
bx ,
bx ."
bx 8
bx B"
bx :
bx t
bx A"
b110000 @
b110000 z
b110000 ?"
b0 f
b0 x
b0 <"
0b
b0 k
b0 +"
b0 0"
b0 L"
1M
b100 h
b100 1"
b0 -
b0 Q"
b0 W"
b10 j
b10 O"
0O
b111000 >
b111000 D"
b110100 p
b110100 H"
1)
#1300000
0)
#1350000
b0 =
b1001010100101100000100000 E
b1001010100101100000100000 E"
b1001010100101100000100000 I"
b0 L
b0 R"
b1000 C
0*
b1000 >
b1000 D"
b100 p
b100 H"
b0 j
b0 O"
bx .
bx 3"
bx N"
bx 0
bx )"
bx 2"
bx k
bx +"
bx 0"
bx L"
xM
bx h
bx 1"
0`
b110100 @
b110100 z
b110100 ?"
b111000 ?
b111000 :"
b111000 G"
1)
#1400000
0)
