build/cpu_tb.vcd
$date
	Sat Oct 11 18:56:13 2025
$end
$version
	Icarus Verilog
$end
$timescale
	1ps
$end
$scope module cpu_tb $end
$var wire 32 ! RF0 [31:0] $end
$var wire 32 " RF1 [31:0] $end
$var wire 32 # RF10 [31:0] $end
$var wire 32 $ RF11 [31:0] $end
$var wire 32 % RF12 [31:0] $end
$var wire 32 & RF13 [31:0] $end
$var wire 32 ' RF14 [31:0] $end
$var wire 32 ( RF15 [31:0] $end
$var wire 32 ) RF16 [31:0] $end
$var wire 32 * RF17 [31:0] $end
$var wire 32 + RF18 [31:0] $end
$var wire 32 , RF19 [31:0] $end
$var wire 32 - RF2 [31:0] $end
$var wire 32 . RF20 [31:0] $end
$var wire 32 / RF21 [31:0] $end
$var wire 32 0 RF22 [31:0] $end
$var wire 32 1 RF23 [31:0] $end
$var wire 32 2 RF24 [31:0] $end
$var wire 32 3 RF25 [31:0] $end
$var wire 32 4 RF26 [31:0] $end
$var wire 32 5 RF27 [31:0] $end
$var wire 32 6 RF28 [31:0] $end
$var wire 32 7 RF29 [31:0] $end
$var wire 32 8 RF3 [31:0] $end
$var wire 32 9 RF30 [31:0] $end
$var wire 32 : RF31 [31:0] $end
$var wire 32 ; RF4 [31:0] $end
$var wire 32 < RF5 [31:0] $end
$var wire 32 = RF6 [31:0] $end
$var wire 32 > RF7 [31:0] $end
$var wire 32 ? RF8 [31:0] $end
$var wire 32 @ RF9 [31:0] $end
$var wire 32 A instr [31:0] $end
$var reg 1 B clk $end
$scope module uut $end
$var wire 1 C branch_taken_ex $end
$var wire 1 B clk $end
$var wire 1 D ctrl_flush_id_ex $end
$var wire 1 E ctrl_flush_if_id $end
$var wire 1 F flush_id_ex $end
$var wire 32 G instr [31:0] $end
$var wire 32 H writedata_ex [31:0] $end
$var wire 5 I writereg_wb [4:0] $end
$var wire 5 J writereg_mem [4:0] $end
$var wire 5 K writereg_ex [4:0] $end
$var wire 32 L writedata_mem [31:0] $end
$var wire 5 M shamt_id [4:0] $end
$var wire 5 N shamt_ex [4:0] $end
$var wire 5 O rt_id [4:0] $end
$var wire 5 P rt_ex [4:0] $end
$var wire 5 Q rs_id [4:0] $end
$var wire 5 R rs_ex [4:0] $end
$var wire 32 S readdata_wb [31:0] $end
$var wire 32 T readdata_mem [31:0] $end
$var wire 32 U readdata2_id [31:0] $end
$var wire 32 V readdata2_ex [31:0] $end
$var wire 32 W readdata1_id [31:0] $end
$var wire 32 X readdata1_ex [31:0] $end
$var wire 5 Y rd_wb [4:0] $end
$var wire 5 Z rd_mem [4:0] $end
$var wire 5 [ rd_id [4:0] $end
$var wire 5 \ rd_ex [4:0] $end
$var wire 2 ] pcsrc_if [1:0] $end
$var wire 1 ^ pc_write $end
$var wire 32 _ pc_plus4_if [31:0] $end
$var wire 32 ` pc_plus4_id [31:0] $end
$var wire 32 a pc_plus4_ex [31:0] $end
$var wire 32 b operand2_forwarded [31:0] $end
$var wire 32 c operand2 [31:0] $end
$var wire 32 d operand1 [31:0] $end
$var wire 6 e opcode_id [5:0] $end
$var wire 32 f next_pc_if [31:0] $end
$var wire 26 g jump_addr_id [25:0] $end
$var wire 32 h instr_if [31:0] $end
$var wire 32 i instr_id [31:0] $end
$var wire 32 j imm32_id [31:0] $end
$var wire 32 k imm32_ex [31:0] $end
$var wire 16 l imm16_id [15:0] $end
$var wire 1 m ifid_write $end
$var wire 6 n funct_id [5:0] $end
$var wire 6 o funct_ex [5:0] $end
$var wire 2 p forwardB [1:0] $end
$var wire 2 q forwardA [1:0] $end
$var wire 32 r datatowritereg [31:0] $end
$var wire 1 s ctrl_zero_ex $end
$var wire 1 t ctrl_regwrite_wb $end
$var wire 1 u ctrl_regwrite_mem $end
$var wire 1 v ctrl_regwrite_id $end
$var wire 1 w ctrl_regwrite_ex $end
$var wire 1 x ctrl_regwrite $end
$var wire 1 y ctrl_regdst_id $end
$var wire 1 z ctrl_regdst_ex $end
$var wire 1 { ctrl_regdst $end
$var wire 1 | ctrl_nop $end
$var wire 1 } ctrl_memwrite_mem $end
$var wire 1 ~ ctrl_memwrite_id $end
$var wire 1 !" ctrl_memwrite_ex $end
$var wire 1 "" ctrl_memwrite $end
$var wire 1 #" ctrl_memtoreg_wb $end
$var wire 1 $" ctrl_memtoreg_mem $end
$var wire 1 %" ctrl_memtoreg_id $end
$var wire 1 &" ctrl_memtoreg_ex $end
$var wire 1 '" ctrl_memtoreg $end
$var wire 1 (" ctrl_memread_mem $end
$var wire 1 )" ctrl_memread_id $end
$var wire 1 *" ctrl_memread_ex $end
$var wire 1 +" ctrl_memread $end
$var wire 1 ," ctrl_jump_id $end
$var wire 1 -" ctrl_jump $end
$var wire 1 ." ctrl_branch_id $end
$var wire 1 /" ctrl_branch_ex $end
$var wire 1 0" ctrl_branch $end
$var wire 1 1" ctrl_alusrc_id $end
$var wire 1 2" ctrl_alusrc_ex $end
$var wire 1 3" ctrl_alusrc $end
$var wire 2 4" ctrl_aluop_id [1:0] $end
$var wire 2 5" ctrl_aluop_ex [1:0] $end
$var wire 2 6" ctrl_aluop [1:0] $end
$var wire 4 7" ctrl_aluctrl_ex [3:0] $end
$var wire 32 8" branch_target_ex [31:0] $end
$var wire 32 9" aluout_wb [31:0] $end
$var wire 32 :" aluout_mem [31:0] $end
$var wire 32 ;" aluout_ex [31:0] $end
$var parameter 2 <" PCSRC_BRANCH $end
$var parameter 2 =" PCSRC_PLUS4 $end
$var parameter 32 >" RESET_PC $end
$var reg 32 ?" pc_if [31:0] $end
$scope module sext $end
$var wire 32 @" imm32_id [31:0] $end
$var wire 16 A" imm16_id [15:0] $end
$upscope $end
$scope module u_alu $end
$var wire 32 B" operand2 [31:0] $end
$var wire 5 C" shamt_ex [4:0] $end
$var wire 32 D" operand1 [31:0] $end
$var wire 1 s ctrl_zero_ex $end
$var wire 4 E" ctrl_aluctrl_ex [3:0] $end
$var reg 32 F" aluout_ex [31:0] $end
$upscope $end
$scope module u_aluctrl $end
$var wire 6 G" funct_ex [5:0] $end
$var wire 2 H" ctrl_aluop_ex [1:0] $end
$var reg 4 I" ctrl_aluctrl_ex [3:0] $end
$upscope $end
$scope module u_btadd $end
$var wire 32 J" pc_plus4_ex [31:0] $end
$var wire 32 K" imm32_ex [31:0] $end
$var wire 32 L" imm32_2sl [31:0] $end
$var reg 32 M" branch_target_ex [31:0] $end
$upscope $end
$scope module u_dec $end
$var wire 5 N" shamt_id [4:0] $end
$var wire 5 O" rt_id [4:0] $end
$var wire 5 P" rs_id [4:0] $end
$var wire 5 Q" rd_id [4:0] $end
$var wire 6 R" opcode_id [5:0] $end
$var wire 26 S" jump_addr_id [25:0] $end
$var wire 32 T" instr_id [31:0] $end
$var wire 16 U" imm16_id [15:0] $end
$var wire 6 V" funct_id [5:0] $end
$upscope $end
$scope module u_dmem $end
$var wire 1 B clk $end
$var wire 32 W" writedata_mem [31:0] $end
$var wire 32 X" readdata_mem [31:0] $end
$var wire 1 } ctrl_memwrite_mem $end
$var wire 1 (" ctrl_memread_mem $end
$var wire 32 Y" aluout_mem [31:0] $end
$upscope $end
$scope module u_exmem $end
$var wire 32 Z" aluout_ex [31:0] $end
$var wire 1 B clk $end
$var wire 32 [" writedata_ex [31:0] $end
$var wire 5 \" writereg_ex [4:0] $end
$var wire 5 ]" rd_ex [4:0] $end
$var wire 1 w ctrl_regwrite_ex $end
$var wire 1 !" ctrl_memwrite_ex $end
$var wire 1 &" ctrl_memtoreg_ex $end
$var wire 1 *" ctrl_memread_ex $end
$var reg 32 ^" aluout_mem [31:0] $end
$var reg 1 (" ctrl_memread_mem $end
$var reg 1 $" ctrl_memtoreg_mem $end
$var reg 1 } ctrl_memwrite_mem $end
$var reg 1 u ctrl_regwrite_mem $end
$var reg 5 _" rd_mem [4:0] $end
$var reg 32 `" writedata_mem [31:0] $end
$var reg 5 a" writereg_mem [4:0] $end
$upscope $end
$scope module u_fwding_unit $end
$var wire 1 u ctrl_regwrite_mem $end
$var wire 5 b" writereg_mem [4:0] $end
$var wire 5 c" writereg_wb [4:0] $end
$var wire 5 d" rt_ex [4:0] $end
$var wire 5 e" rs_ex [4:0] $end
$var wire 1 t ctrl_regwrite_wb $end
$var reg 2 f" forwardA [1:0] $end
$var reg 2 g" forwardB [1:0] $end
$upscope $end
$scope module u_hdu $end
$var wire 5 h" rs_id [4:0] $end
$var wire 5 i" rt_id [4:0] $end
$var wire 5 j" rt_ex [4:0] $end
$var wire 1 *" ctrl_memread_ex $end
$var reg 1 | ctrl_nop $end
$var reg 1 m ifid_write $end
$var reg 1 ^ pc_write $end
$upscope $end
$scope module u_idex $end
$var wire 1 B clk $end
$var wire 1 F flush_id_ex $end
$var wire 6 k" funct_id [5:0] $end
$var wire 32 l" imm32_id [31:0] $end
$var wire 5 m" rd_id [4:0] $end
$var wire 5 n" rs_id [4:0] $end
$var wire 5 o" rt_id [4:0] $end
$var wire 5 p" shamt_id [4:0] $end
$var wire 32 q" readdata2_id [31:0] $end
$var wire 32 r" readdata1_id [31:0] $end
$var wire 32 s" pc_plus4_id [31:0] $end
$var wire 1 v ctrl_regwrite_id $end
$var wire 1 y ctrl_regdst_id $end
$var wire 1 ~ ctrl_memwrite_id $end
$var wire 1 %" ctrl_memtoreg_id $end
$var wire 1 )" ctrl_memread_id $end
$var wire 1 ." ctrl_branch_id $end
$var wire 1 1" ctrl_alusrc_id $end
$var wire 2 t" ctrl_aluop_id [1:0] $end
$var reg 2 u" ctrl_aluop_ex [1:0] $end
$var reg 1 2" ctrl_alusrc_ex $end
$var reg 1 /" ctrl_branch_ex $end
$var reg 1 *" ctrl_memread_ex $end
$var reg 1 &" ctrl_memtoreg_ex $end
$var reg 1 !" ctrl_memwrite_ex $end
$var reg 1 z ctrl_regdst_ex $end
$var reg 1 w ctrl_regwrite_ex $end
$var reg 6 v" funct_ex [5:0] $end
$var reg 32 w" imm32_ex [31:0] $end
$var reg 32 x" pc_plus4_ex [31:0] $end
$var reg 5 y" rd_ex [4:0] $end
$var reg 32 z" readdata1_ex [31:0] $end
$var reg 32 {" readdata2_ex [31:0] $end
$var reg 5 |" rs_ex [4:0] $end
$var reg 5 }" rt_ex [4:0] $end
$var reg 5 ~" shamt_ex [4:0] $end
$upscope $end
$scope module u_ifid $end
$var wire 1 B clk $end
$var wire 1 E ctrl_flush_if_id $end
$var wire 1 m ifid_write $end
$var wire 32 !# pc_plus4_if [31:0] $end
$var wire 32 "# instr_if [31:0] $end
$var reg 32 ## instr_id [31:0] $end
$var reg 32 $# pc_plus4_id [31:0] $end
$upscope $end
$scope module u_imem $end
$var wire 32 %# pc_if [31:0] $end
$var reg 32 &# instr_if [31:0] $end
$upscope $end
$scope module u_mcu $end
$var wire 6 '# opcode_id [5:0] $end
$var reg 2 (# ctrl_aluop [1:0] $end
$var reg 1 3" ctrl_alusrc $end
$var reg 1 0" ctrl_branch $end
$var reg 1 -" ctrl_jump $end
$var reg 1 +" ctrl_memread $end
$var reg 1 '" ctrl_memtoreg $end
$var reg 1 "" ctrl_memwrite $end
$var reg 1 { ctrl_regdst $end
$var reg 1 x ctrl_regwrite $end
$upscope $end
$scope module u_memwb $end
$var wire 32 )# aluout_mem [31:0] $end
$var wire 1 B clk $end
$var wire 1 $" ctrl_memtoreg_mem $end
$var wire 1 u ctrl_regwrite_mem $end
$var wire 5 *# rd_mem [4:0] $end
$var wire 32 +# readdata_mem [31:0] $end
$var wire 5 ,# writereg_mem [4:0] $end
$var reg 32 -# aluout_wb [31:0] $end
$var reg 1 #" ctrl_memtoreg_wb $end
$var reg 1 t ctrl_regwrite_wb $end
$var reg 5 .# rd_wb [4:0] $end
$var reg 32 /# readdata_wb [31:0] $end
$var reg 5 0# writereg_wb [4:0] $end
$upscope $end
$scope module u_muxflush $end
$var wire 2 1# ctrl_aluop [1:0] $end
$var wire 1 3" ctrl_alusrc $end
$var wire 1 0" ctrl_branch $end
$var wire 1 D ctrl_flush_id_ex $end
$var wire 1 -" ctrl_jump $end
$var wire 1 +" ctrl_memread $end
$var wire 1 '" ctrl_memtoreg $end
$var wire 1 "" ctrl_memwrite $end
$var wire 1 { ctrl_regdst $end
$var wire 1 x ctrl_regwrite $end
$var reg 2 2# ctrl_aluop_id [1:0] $end
$var reg 1 1" ctrl_alusrc_id $end
$var reg 1 ." ctrl_branch_id $end
$var reg 1 ," ctrl_jump_id $end
$var reg 1 )" ctrl_memread_id $end
$var reg 1 %" ctrl_memtoreg_id $end
$var reg 1 ~ ctrl_memwrite_id $end
$var reg 1 y ctrl_regdst_id $end
$var reg 1 v ctrl_regwrite_id $end
$upscope $end
$scope module u_muxop1 $end
$var wire 32 3# aluout_mem [31:0] $end
$var wire 32 4# datatowritereg [31:0] $end
$var wire 2 5# forwardA [1:0] $end
$var wire 32 6# readdata1_ex [31:0] $end
$var reg 32 7# operand1 [31:0] $end
$upscope $end
$scope module u_muxop2 $end
$var wire 32 8# aluout_mem [31:0] $end
$var wire 32 9# datatowritereg [31:0] $end
$var wire 2 :# forwardB [1:0] $end
$var wire 32 ;# readdata2_ex [31:0] $end
$var reg 32 <# operand2_forwarded [31:0] $end
$upscope $end
$scope module u_rf $end
$var wire 1 B clk $end
$var wire 1 t ctrl_regwrite_wb $end
$var wire 32 =# datatowritereg [31:0] $end
$var wire 32 ># readdata1_id [31:0] $end
$var wire 32 ?# readdata2_id [31:0] $end
$var wire 5 @# rs_id [4:0] $end
$var wire 5 A# rt_id [4:0] $end
$var wire 5 B# writereg_wb [4:0] $end
$upscope $end
$upscope $end
$upscope $end
$enddefinitions $end
$comment Show the parameter values. $end
$dumpall
b0 >"
b0 ="
b1 <"
$end
#0
$dumpvars
bx B#
bx A#
bx @#
bx ?#
bx >#
bx =#
bx <#
bx ;#
bx :#
bx 9#
bx 8#
bx 7#
bx 6#
bx 5#
bx 4#
bx 3#
bx 2#
bx 1#
bx 0#
bx /#
bx .#
bx -#
bx ,#
bx +#
bx *#
bx )#
bx (#
bx '#
b1000010010100100000100000 &#
b0 %#
bx $#
bx ##
b1000010010100100000100000 "#
b100 !#
bx ~"
bx }"
bx |"
bx {"
bx z"
bx y"
bx x"
bx w"
bx v"
bx u"
bx t"
bx s"
bx r"
bx q"
bx p"
bx o"
bx n"
bx m"
bx l"
bx k"
bx j"
bx i"
bx h"
bx g"
bx f"
bx e"
bx d"
bx c"
bx b"
bx a"
bx `"
bx _"
bx ^"
bx ]"
bx \"
bx ["
bx Z"
bx Y"
bx X"
bx W"
bx V"
bx U"
bx T"
bx S"
bx R"
bx Q"
bx P"
bx O"
bx N"
bx M"
bx00 L"
bx K"
bx J"
bx I"
bx H"
bx G"
bx F"
bx E"
bx D"
bx C"
bx B"
bx A"
bx @"
b0 ?"
bx ;"
bx :"
bx 9"
bx 8"
bx 7"
bx 6"
bx 5"
bx 4"
x3"
x2"
x1"
x0"
x/"
x."
x-"
x,"
x+"
x*"
x)"
x("
x'"
x&"
x%"
x$"
x#"
x""
x!"
x~
x}
0|
x{
xz
xy
xx
xw
xv
xu
xt
xs
bx r
bx q
bx p
bx o
bx n
1m
bx l
bx k
bx j
bx i
b1000010010100100000100000 h
bx g
b100 f
bx e
bx d
bx c
bx b
bx a
bx `
b100 _
1^
b0 ]
bx \
bx [
bx Z
bx Y
bx X
bx W
bx V
bx U
bx T
bx S
bx R
bx Q
bx P
bx O
bx N
bx M
bx L
bx K
bx J
bx I
bx H
bx G
0F
0E
0D
0C
0B
bx A
b0 @
b11 ?
bx >
bx =
bx <
bx ;
bx :
bx 9
bx 8
bx 7
bx 6
bx 5
bx 4
bx 3
b1111000011110000111100001111 2
bx 1
bx 0
bx /
bx .
bx -
bx ,
bx +
bx *
bx )
b11111111111111110000000011111111 (
b0 '
b111 &
b1100100 %
b1010 $
b11 #
bx "
b0 !
$end
#50000
b10 4"
b10 t"
b10 2#
1v
01"
0~
0%"
0)"
0."
0,"
1y
b10 6"
b10 (#
b10 1#
1x
03"
0""
0'"
0+"
00"
0-"
1{
b1000010010100100000100000 g
b1000010010100100000100000 S"
b100100000100000 j
b100100000100000 @"
b100100000100000 l"
b100100000100000 l
b100100000100000 A"
b100100000100000 U"
b100000 n
b100000 V"
b100000 k"
b0 M
b0 N"
b0 p"
b1001 [
b1001 Q"
b1001 m"
b0 U
b0 q"
b0 ?#
b1001 O
b1001 O"
b1001 i"
b1001 o"
b1001 A#
b11 W
b11 r"
b11 >#
b1000 Q
b1000 P"
b1000 h"
b1000 n"
b1000 @#
b0 e
b0 R"
b0 '#
b1000 f
b10001010010011111111111111110 h
b10001010010011111111111111110 "#
b10001010010011111111111111110 &#
b1000010010100100000100000 A
b1000010010100100000100000 G
b1000010010100100000100000 i
b1000010010100100000100000 T"
b1000010010100100000100000 ##
b100 `
b100 s"
b100 $#
b1000 _
b1000 !#
b100 ?"
b100 %#
1B
#100000
0B
#150000
0s
b11 ;"
b11 F"
b11 Z"
b1 4"
b1 t"
b1 2#
0v
1."
0y
b10010000010000100 8"
b10010000010000100 M"
b0 c
b0 B"
10"
b1 6"
b1 (#
b1 1#
0x
0{
b1100 f
b1001010000101000000100010 h
b1001010000101000000100010 "#
b1001010000101000000100010 &#
b0 q
b0 f"
b0 5#
b0 p
b0 g"
b0 :#
b10010000010000000 L"
b0 b
b0 <#
b11 d
b11 D"
b11 7#
b10 7"
b10 E"
b10 I"
b1001 K
b1001 \"
b1010010011111111111111110 g
b1010010011111111111111110 S"
b11111111111111111111111111111110 j
b11111111111111111111111111111110 @"
b11111111111111111111111111111110 l"
b1111111111111110 l
b1111111111111110 A"
b1111111111111110 U"
b111110 n
b111110 V"
b111110 k"
b11111 M
b11111 N"
b11111 p"
b11111 [
b11111 Q"
b11111 m"
b1010 Q
b1010 P"
b1010 h"
b1010 n"
b1010 @#
b100 e
b100 R"
b100 '#
b1100 _
b1100 !#
b1000 ?"
b1000 %#
b1000 R
b1000 e"
b1000 |"
b1001 \
b1001 ]"
b1001 y"
b1001 P
b1001 d"
b1001 j"
b1001 }"
b100000 o
b100000 G"
b100000 v"
b100100000100000 k
b100100000100000 K"
b100100000100000 w"
b0 H
b0 ["
b0 V
b0 {"
b0 ;#
b11 X
b11 z"
b11 6#
b100 a
b100 J"
b100 x"
1w
02"
0!"
b10 5"
b10 H"
b10 u"
0&"
0*"
0/"
1z
b10001010010011111111111111110 A
b10001010010011111111111111110 G
b10001010010011111111111111110 i
b10001010010011111111111111110 T"
b10001010010011111111111111110 ##
b1000 `
b1000 s"
b1000 $#
1B
#200000
0B
#250000
b1 ]
1D
b0 4"
b0 t"
b0 2#
0v
0."
0y
1F
1E
1C
1x
1{
b10 6"
b10 (#
b10 1#
00"
1s
b0 ;"
b0 F"
b0 Z"
b11 c
b11 B"
b1001010000101000000100010 g
b1001010000101000000100010 S"
b101000000100010 j
b101000000100010 @"
b101000000100010 l"
b101000000100010 l
b101000000100010 A"
b101000000100010 U"
b100010 n
b100010 V"
b100010 k"
b0 M
b0 N"
b0 p"
b1010 [
b1010 Q"
b1010 m"
b11 U
b11 q"
b11 ?#
b1000 O
b1000 O"
b1000 i"
b1000 o"
b1000 A#
b0 W
b0 r"
b0 >#
b1001 Q
b1001 P"
b1001 h"
b1001 n"
b1001 @#
b0 e
b0 R"
b0 '#
b11111111111111111111111111111000 L"
b0 8"
b0 M"
b110 7"
b110 E"
b110 I"
b11 b
b11 <#
b10 p
b10 g"
b10 :#
b0 T
b0 X"
b0 +#
b0 f
b1001010100101100000100100 h
b1001010100101100000100100 "#
b1001010100101100000100100 &#
b1001010000101000000100010 A
b1001010000101000000100010 G
b1001010000101000000100010 i
b1001010000101000000100010 T"
b1001010000101000000100010 ##
b1100 `
b1100 s"
b1100 $#
b1010 R
b1010 e"
b1010 |"
b11111 \
b11111 ]"
b11111 y"
b111110 o
b111110 G"
b111110 v"
b11111111111111111111111111111110 k
b11111111111111111111111111111110 K"
b11111111111111111111111111111110 w"
b1000 a
b1000 J"
b1000 x"
0w
b1 5"
b1 H"
b1 u"
1/"
0z
b1001 Z
b1001 _"
b1001 *#
b1001 J
b1001 a"
b1001 b"
b1001 ,#
b0 L
b0 W"
b0 `"
b11 :"
b11 Y"
b11 ^"
b11 )#
b11 3#
b11 8#
1u
0}
0$"
0("
b10000 _
b10000 !#
b1100 ?"
b1100 %#
1B
#300000
0B
#350000
b10 4"
b10 t"
b10 2#
1v
1y
b11 c
b11 B"
b100 f
0s
b110 ;"
b110 F"
b110 Z"
b0 ]
0D
b1000010010100100000100000 h
b1000010010100100000100000 "#
b1000010010100100000100000 &#
b11 r
b11 4#
b11 9#
b11 =#
b1 q
b1 f"
b1 5#
b1000 K
b1000 \"
b0 p
b0 g"
b0 :#
b10100000010001000 L"
b11 b
b11 <#
b11 d
b11 D"
b11 7#
b10100000010010100 8"
b10100000010010100 M"
b10 7"
b10 E"
b10 I"
0F
0E
0C
b0 g
b0 S"
b0 j
b0 @"
b0 l"
b0 l
b0 A"
b0 U"
b0 n
b0 V"
b0 k"
b0 [
b0 Q"
b0 m"
b0 U
b0 q"
b0 ?#
b0 O
b0 O"
b0 i"
b0 o"
b0 A#
b0 Q
b0 P"
b0 h"
b0 n"
b0 @#
b100 _
b100 !#
b0 ?"
b0 %#
b1001 I
b1001 c"
b1001 0#
b1001 B#
b1001 Y
b1001 .#
b11 9"
b11 -#
b0 S
b0 /#
1t
0#"
b11111 Z
b11111 _"
b11111 *#
b0 :"
b0 Y"
b0 ^"
b0 )#
b0 3#
b0 8#
0u
b1001 R
b1001 e"
b1001 |"
b1010 \
b1010 ]"
b1010 y"
b1000 P
b1000 d"
b1000 j"
b1000 }"
b100010 o
b100010 G"
b100010 v"
b101000000100010 k
b101000000100010 K"
b101000000100010 w"
b11 H
b11 ["
b11 V
b11 {"
b11 ;#
b0 X
b0 z"
b0 6#
b1100 a
b1100 J"
b1100 x"
b0 5"
b0 H"
b0 u"
0/"
b0 A
b0 G
b0 i
b0 T"
b0 ##
b0 `
b0 s"
b0 $#
1B
#400000
0B
#450000
xs
bx ;"
bx F"
bx Z"
b0 c
b0 B"
b1000010010100100000100000 g
b1000010010100100000100000 S"
b100100000100000 j
b100100000100000 @"
b100100000100000 l"
b100100000100000 l
b100100000100000 A"
b100100000100000 U"
b100000 n
b100000 V"
b100000 k"
b1001 [
b1001 Q"
b1001 m"
b11 U
b11 q"
b11 ?#
b1001 O
b1001 O"
b1001 i"
b1001 o"
b1001 A#
b11 W
b11 r"
b11 >#
b1000 Q
b1000 P"
b1000 h"
b1000 n"
b1000 @#
b0 L"
b0 8"
b0 M"
b1000 7"
b1000 E"
b1000 I"
b0 K
b0 \"
b0 d
b0 D"
b0 7#
b0 b
b0 <#
b0 r
b0 4#
b0 9#
b0 =#
b0 q
b0 f"
b0 5#
b1000 f
b10001010010011111111111111110 h
b10001010010011111111111111110 "#
b10001010010011111111111111110 &#
b1000010010100100000100000 A
b1000010010100100000100000 G
b1000010010100100000100000 i
b1000010010100100000100000 T"
b1000010010100100000100000 ##
b100 `
b100 s"
b100 $#
b11 @
b0 R
b0 e"
b0 |"
b0 \
b0 ]"
b0 y"
b0 P
b0 d"
b0 j"
b0 }"
b0 o
b0 G"
b0 v"
b0 k
b0 K"
b0 w"
b0 H
b0 ["
b0 V
b0 {"
b0 ;#
b0 a
b0 J"
b0 x"
1w
b10 5"
b10 H"
b10 u"
1z
b1010 Z
b1010 _"
b1010 *#
b1000 J
b1000 a"
b1000 b"
b1000 ,#
b11 L
b11 W"
b11 `"
b110 :"
b110 Y"
b110 ^"
b110 )#
b110 3#
b110 8#
b11111 Y
b11111 .#
b0 9"
b0 -#
0t
b1000 _
b1000 !#
b100 ?"
b100 %#
1B
#500000
0B
#550000
b1 4"
b1 t"
b1 2#
0v
1."
0y
b11 c
b11 B"
0s
b110 ;"
b110 F"
b110 Z"
10"
b1 6"
b1 (#
b1 1#
0x
0{
b1100 f
b1001010000101000000100010 h
b1001010000101000000100010 "#
b1001010000101000000100010 &#
b110 r
b110 4#
b110 9#
b110 =#
b1001 K
b1001 \"
b10 7"
b10 E"
b10 I"
b10010000010000000 L"
b11 b
b11 <#
b11 d
b11 D"
b11 7#
b10010000010000100 8"
b10010000010000100 M"
b1010010011111111111111110 g
b1010010011111111111111110 S"
b11111111111111111111111111111110 j
b11111111111111111111111111111110 @"
b11111111111111111111111111111110 l"
b1111111111111110 l
b1111111111111110 A"
b1111111111111110 U"
b111110 n
b111110 V"
b111110 k"
b11111 M
b11111 N"
b11111 p"
b11111 [
b11111 Q"
b11111 m"
b1010 Q
b1010 P"
b1010 h"
b1010 n"
b1010 @#
b100 e
b100 R"
b100 '#
b1100 _
b1100 !#
b1000 ?"
b1000 %#
b1000 I
b1000 c"
b1000 0#
b1000 B#
b1010 Y
b1010 .#
b110 9"
b110 -#
b0 Z
b0 _"
b0 *#
b0 J
b0 a"
b0 b"
b0 ,#
b0 L
b0 W"
b0 `"
bx :"
bx Y"
bx ^"
bx )#
bx 3#
bx 8#
1u
b1000 R
b1000 e"
b1000 |"
b1001 \
b1001 ]"
b1001 y"
b1001 P
b1001 d"
b1001 j"
b1001 }"
b100000 o
b100000 G"
b100000 v"
b100100000100000 k
b100100000100000 K"
b100100000100000 w"
b11 H
b11 ["
b11 V
b11 {"
b11 ;#
b11 X
b11 z"
b11 6#
b100 a
b100 J"
b100 x"
b10001010010011111111111111110 A
b10001010010011111111111111110 G
b10001010010011111111111111110 i
b10001010010011111111111111110 T"
b10001010010011111111111111110 ##
b1000 `
b1000 s"
b1000 $#
1B
#600000
0B
#650000
b10 4"
b10 t"
b10 2#
1v
0."
1y
1x
1{
b10 6"
b10 (#
b10 1#
00"
b11111111111111111111111111111101 ;"
b11111111111111111111111111111101 F"
b11111111111111111111111111111101 Z"
b110 c
b110 B"
b1001010000101000000100010 g
b1001010000101000000100010 S"
b101000000100010 j
b101000000100010 @"
b101000000100010 l"
b101000000100010 l
b101000000100010 A"
b101000000100010 U"
b100010 n
b100010 V"
b100010 k"
b0 M
b0 N"
b0 p"
b1010 [
b1010 Q"
b1010 m"
b1000 O
b1000 O"
b1000 i"
b1000 o"
b1000 A#
b1001 Q
b1001 P"
b1001 h"
b1001 n"
b1001 @#
b0 e
b0 R"
b0 '#
b11111111111111111111111111111000 L"
b0 8"
b0 M"
b110 7"
b110 E"
b110 I"
b110 b
b110 <#
bx r
bx 4#
bx 9#
bx =#
b10 p
b10 g"
b10 :#
b10000 f
b1001010100101100000100100 h
b1001010100101100000100100 "#
b1001010100101100000100100 &#
b1001010000101000000100010 A
b1001010000101000000100010 G
b1001010000101000000100010 i
b1001010000101000000100010 T"
b1001010000101000000100010 ##
b1100 `
b1100 s"
b1100 $#
b1010 R
b1010 e"
b1010 |"
b11111 \
b11111 ]"
b11111 y"
b111110 o
b111110 G"
b111110 v"
b11111111111111111111111111111110 k
b11111111111111111111111111111110 K"
b11111111111111111111111111111110 w"
b1000 a
b1000 J"
b1000 x"
0w
b1 5"
b1 H"
b1 u"
1/"
0z
b1001 Z
b1001 _"
b1001 *#
b1001 J
b1001 a"
b1001 b"
b1001 ,#
b11 L
b11 W"
b11 `"
b110 :"
b110 Y"
b110 ^"
b110 )#
b110 3#
b110 8#
b0 I
b0 c"
b0 0#
b0 B#
b0 Y
b0 .#
bx 9"
bx -#
1t
b10000 _
b10000 !#
b1100 ?"
b1100 %#
1B
#700000
0B
#750000
0s
b11 ;"
b11 F"
b11 Z"
b11 c
b11 B"
b10100 f
bx h
bx "#
bx &#
b110 r
b110 4#
b110 9#
b110 =#
b110 d
b110 D"
b110 7#
b11 b
b11 <#
b1 q
b1 f"
b1 5#
b0 p
b0 g"
b0 :#
b10100000010001000 L"
b10100000010010100 8"
b10100000010010100 M"
b1010 K
b1010 \"
b1001010100101100000100100 g
b1001010100101100000100100 S"
b101100000100100 j
b101100000100100 @"
b101100000100100 l"
b101100000100100 l
b101100000100100 A"
b101100000100100 U"
b100100 n
b100100 V"
b100100 k"
b1011 [
b1011 Q"
b1011 m"
b1010 O
b1010 O"
b1010 i"
b1010 o"
b1010 A#
b10100 _
b10100 !#
b10000 ?"
b10000 %#
b1001 I
b1001 c"
b1001 0#
b1001 B#
b1001 Y
b1001 .#
b110 9"
b110 -#
b11111 Z
b11111 _"
b11111 *#
b11111111111111111111111111111101 :"
b11111111111111111111111111111101 Y"
b11111111111111111111111111111101 ^"
b11111111111111111111111111111101 )#
b11111111111111111111111111111101 3#
b11111111111111111111111111111101 8#
0u
b1001 R
b1001 e"
b1001 |"
b1010 \
b1010 ]"
b1010 y"
b1000 P
b1000 d"
b1000 j"
b1000 }"
b100010 o
b100010 G"
b100010 v"
b101000000100010 k
b101000000100010 K"
b101000000100010 w"
b1100 a
b1100 J"
b1100 x"
1w
b10 5"
b10 H"
b10 u"
0/"
1z
b1001010100101100000100100 A
b1001010100101100000100100 G
b1001010100101100000100100 i
b1001010100101100000100100 T"
b1001010100101100000100100 ##
b10000 `
b10000 s"
b10000 $#
1B
#800000
0B
