build/cpu_tb.vcd
$date
	Sun May 31 12:57:22 2026
$end
$version
	Icarus Verilog
$end
$timescale
	1ps
$end
$scope module cpu_tb $end
$var wire 32 ! RF0 [31:0] $end
$var wire 32 " RF1 [31:0] $end
$var wire 32 # RF10 [31:0] $end
$var wire 32 $ RF11 [31:0] $end
$var wire 32 % RF12 [31:0] $end
$var wire 32 & RF13 [31:0] $end
$var wire 32 ' RF14 [31:0] $end
$var wire 32 ( RF15 [31:0] $end
$var wire 32 ) RF16 [31:0] $end
$var wire 32 * RF17 [31:0] $end
$var wire 32 + RF18 [31:0] $end
$var wire 32 , RF19 [31:0] $end
$var wire 32 - RF2 [31:0] $end
$var wire 32 . RF20 [31:0] $end
$var wire 32 / RF21 [31:0] $end
$var wire 32 0 RF22 [31:0] $end
$var wire 32 1 RF23 [31:0] $end
$var wire 32 2 RF24 [31:0] $end
$var wire 32 3 RF25 [31:0] $end
$var wire 32 4 RF26 [31:0] $end
$var wire 32 5 RF27 [31:0] $end
$var wire 32 6 RF28 [31:0] $end
$var wire 32 7 RF29 [31:0] $end
$var wire 32 8 RF3 [31:0] $end
$var wire 32 9 RF30 [31:0] $end
$var wire 32 : RF31 [31:0] $end
$var wire 32 ; RF4 [31:0] $end
$var wire 32 < RF5 [31:0] $end
$var wire 32 = RF6 [31:0] $end
$var wire 32 > RF7 [31:0] $end
$var wire 32 ? RF8 [31:0] $end
$var wire 32 @ RF9 [31:0] $end
$var wire 32 A instr [31:0] $end
$var reg 1 B clk $end
$scope module uut $end
$var wire 1 C branch_taken_ex $end
$var wire 1 B clk $end
$var wire 32 D instr [31:0] $end
$var wire 32 E writedata_ex [31:0] $end
$var wire 5 F writereg_wb [4:0] $end
$var wire 5 G writereg_mem [4:0] $end
$var wire 5 H writereg_ex [4:0] $end
$var wire 32 I writedata_mem [31:0] $end
$var wire 5 J shamt_id [4:0] $end
$var wire 5 K shamt_ex [4:0] $end
$var wire 5 L rt_mem [4:0] $end
$var wire 5 M rt_id [4:0] $end
$var wire 5 N rt_ex [4:0] $end
$var wire 5 O rs_id [4:0] $end
$var wire 5 P rs_ex [4:0] $end
$var wire 32 Q readdata_wb [31:0] $end
$var wire 32 R readdata_mem [31:0] $end
$var wire 32 S readdata2_id [31:0] $end
$var wire 32 T readdata2_ex [31:0] $end
$var wire 32 U readdata1_id [31:0] $end
$var wire 32 V readdata1_ex [31:0] $end
$var wire 5 W rd_wb [4:0] $end
$var wire 5 X rd_mem [4:0] $end
$var wire 5 Y rd_id [4:0] $end
$var wire 5 Z rd_ex [4:0] $end
$var wire 2 [ pcsrc_if [1:0] $end
$var wire 1 \ pc_write $end
$var wire 32 ] pc_plus4_if [31:0] $end
$var wire 32 ^ pc_plus4_id [31:0] $end
$var wire 32 _ pc_plus4_ex [31:0] $end
$var wire 32 ` pc_ex [31:0] $end
$var wire 32 a operand2_forwarded [31:0] $end
$var wire 32 b operand2 [31:0] $end
$var wire 32 c operand1 [31:0] $end
$var wire 6 d opcode_id [5:0] $end
$var wire 32 e next_pc_if [31:0] $end
$var wire 26 f jump_addr_id [25:0] $end
$var wire 1 g is_eret $end
$var wire 32 h instr_if [31:0] $end
$var wire 32 i instr_id [31:0] $end
$var wire 32 j imm32_id [31:0] $end
$var wire 32 k imm32_ex [31:0] $end
$var wire 16 l imm16_id [15:0] $end
$var wire 1 m ifid_write $end
$var wire 32 n handler_pc [31:0] $end
$var wire 6 o funct_id [5:0] $end
$var wire 6 p funct_ex [5:0] $end
$var wire 2 q forwardB [1:0] $end
$var wire 2 r forwardA [1:0] $end
$var wire 1 s final_flush_mem_wb $end
$var wire 1 t final_flush_if_id $end
$var wire 1 u final_flush_id_ex $end
$var wire 1 v final_flush_ex_mem $end
$var wire 32 w faulting_pc [31:0] $end
$var wire 1 x exception_req $end
$var wire 1 y exc_flush_mem_wb $end
$var wire 1 z exc_flush_if_id $end
$var wire 1 { exc_flush_id_ex $end
$var wire 1 | exc_flush_ex_mem $end
$var wire 32 } epc [31:0] $end
$var wire 1 ~ div_by_zero_ex $end
$var wire 32 !" datatowritereg [31:0] $end
$var wire 1 "" ctrl_zero_ex $end
$var wire 2 #" ctrl_wbsrc_wb [1:0] $end
$var wire 2 $" ctrl_wbsrc_mem [1:0] $end
$var wire 2 %" ctrl_wbsrc_ex [1:0] $end
$var wire 2 &" ctrl_wbsrc [1:0] $end
$var wire 1 '" ctrl_regwrite_wb $end
$var wire 1 (" ctrl_regwrite_mem $end
$var wire 1 )" ctrl_regwrite_ex $end
$var wire 1 *" ctrl_regwrite $end
$var wire 1 +" ctrl_regdst_ex $end
$var wire 1 ," ctrl_regdst $end
$var wire 1 -" ctrl_memwrite_mem $end
$var wire 1 ." ctrl_memwrite_ex $end
$var wire 1 /" ctrl_memwrite $end
$var wire 1 0" ctrl_memread_mem $end
$var wire 1 1" ctrl_memread_ex $end
$var wire 1 2" ctrl_memread $end
$var wire 1 3" ctrl_jump $end
$var wire 1 4" ctrl_branch_ex $end
$var wire 1 5" ctrl_branch $end
$var wire 1 6" ctrl_alusrc_ex $end
$var wire 1 7" ctrl_alusrc $end
$var wire 2 8" ctrl_aluop_ex [1:0] $end
$var wire 2 9" ctrl_aluop [1:0] $end
$var wire 4 :" ctrl_aluctrl_ex [3:0] $end
$var wire 1 ;" cp0_write_mem $end
$var wire 1 <" cp0_write_ex $end
$var wire 1 =" cp0_write $end
$var wire 32 >" cp0_readdata_wb [31:0] $end
$var wire 32 ?" cp0_readdata [31:0] $end
$var wire 32 @" cause [31:0] $end
$var wire 32 A" branch_target_ex [31:0] $end
$var wire 32 B" aluout_wb [31:0] $end
$var wire 32 C" aluout_mem [31:0] $end
$var wire 32 D" aluout_ex [31:0] $end
$var parameter 2 E" PCSRC_BRANCH $end
$var parameter 2 F" PCSRC_ERET $end
$var parameter 2 G" PCSRC_EXCEPTION $end
$var parameter 2 H" PCSRC_PLUS4 $end
$var parameter 32 I" RESET_PC $end
$var reg 32 J" pc_if [31:0] $end
$scope module sext $end
$var wire 32 K" imm32_id [31:0] $end
$var wire 16 L" imm16_id [15:0] $end
$upscope $end
$scope module u_alu $end
$var wire 1 ~ div_by_zero_ex $end
$var wire 32 M" operand2 [31:0] $end
$var wire 5 N" shamt_ex [4:0] $end
$var wire 32 O" operand1 [31:0] $end
$var wire 1 "" ctrl_zero_ex $end
$var wire 4 P" ctrl_aluctrl_ex [3:0] $end
$var reg 32 Q" aluout_ex [31:0] $end
$upscope $end
$scope module u_aluctrl $end
$var wire 6 R" funct_ex [5:0] $end
$var wire 2 S" ctrl_aluop_ex [1:0] $end
$var reg 4 T" ctrl_aluctrl_ex [3:0] $end
$upscope $end
$scope module u_btadd $end
$var wire 32 U" pc_plus4_ex [31:0] $end
$var wire 32 V" imm32_ex [31:0] $end
$var wire 32 W" imm32_2sl [31:0] $end
$var reg 32 X" branch_target_ex [31:0] $end
$upscope $end
$scope module u_cp0 $end
$var wire 1 B clk $end
$var wire 32 Y" faulting_pc [31:0] $end
$var wire 1 x exception_req $end
$var wire 32 Z" cp0_writedata [31:0] $end
$var wire 1 ;" cp0_write_mem $end
$var wire 5 [" cp0_addr [4:0] $end
$var wire 32 \" cause_in [31:0] $end
$var reg 32 ]" cause [31:0] $end
$var reg 32 ^" cp0_readdata [31:0] $end
$var reg 32 _" epc [31:0] $end
$var reg 32 `" handler_pc [31:0] $end
$upscope $end
$scope module u_dec $end
$var wire 5 a" shamt_id [4:0] $end
$var wire 5 b" rt_id [4:0] $end
$var wire 5 c" rs_id [4:0] $end
$var wire 5 d" rd_id [4:0] $end
$var wire 6 e" opcode_id [5:0] $end
$var wire 26 f" jump_addr_id [25:0] $end
$var wire 32 g" instr_id [31:0] $end
$var wire 16 h" imm16_id [15:0] $end
$var wire 6 i" funct_id [5:0] $end
$upscope $end
$scope module u_dmem $end
$var wire 1 B clk $end
$var wire 32 j" writedata_mem [31:0] $end
$var wire 32 k" readdata_mem [31:0] $end
$var wire 1 -" ctrl_memwrite_mem $end
$var wire 1 0" ctrl_memread_mem $end
$var wire 32 l" aluout_mem [31:0] $end
$upscope $end
$scope module u_exc_arbiter $end
$var wire 1 ~ div_by_zero_ex $end
$var wire 1 | exc_flush_ex_mem $end
$var wire 1 { exc_flush_id_ex $end
$var wire 1 z exc_flush_if_id $end
$var wire 1 y exc_flush_mem_wb $end
$var wire 1 m" exc_req_ex $end
$var wire 1 n" exc_req_id $end
$var wire 1 o" exc_req_mem $end
$var wire 1 p" exc_req_wb $end
$var wire 1 x exception_req $end
$var wire 32 q" pc_ex [31:0] $end
$var reg 32 r" cause [31:0] $end
$var reg 32 s" faulting_pc [31:0] $end
$upscope $end
$scope module u_exmem $end
$var wire 32 t" aluout_ex [31:0] $end
$var wire 1 B clk $end
$var wire 32 u" writedata_ex [31:0] $end
$var wire 5 v" writereg_ex [4:0] $end
$var wire 5 w" rt_ex [4:0] $end
$var wire 5 x" rd_ex [4:0] $end
$var wire 1 v final_flush_ex_mem $end
$var wire 2 y" ctrl_wbsrc_ex [1:0] $end
$var wire 1 )" ctrl_regwrite_ex $end
$var wire 1 ." ctrl_memwrite_ex $end
$var wire 1 1" ctrl_memread_ex $end
$var wire 1 <" cp0_write_ex $end
$var reg 32 z" aluout_mem [31:0] $end
$var reg 1 ;" cp0_write_mem $end
$var reg 1 0" ctrl_memread_mem $end
$var reg 1 -" ctrl_memwrite_mem $end
$var reg 1 (" ctrl_regwrite_mem $end
$var reg 2 {" ctrl_wbsrc_mem [1:0] $end
$var reg 5 |" rd_mem [4:0] $end
$var reg 5 }" rt_mem [4:0] $end
$var reg 32 ~" writedata_mem [31:0] $end
$var reg 5 !# writereg_mem [4:0] $end
$upscope $end
$scope module u_fwding_unit $end
$var wire 1 (" ctrl_regwrite_mem $end
$var wire 5 "# writereg_mem [4:0] $end
$var wire 5 ## writereg_wb [4:0] $end
$var wire 5 $# rt_ex [4:0] $end
$var wire 5 %# rs_ex [4:0] $end
$var wire 1 '" ctrl_regwrite_wb $end
$var reg 2 &# forwardA [1:0] $end
$var reg 2 '# forwardB [1:0] $end
$upscope $end
$scope module u_hdu $end
$var wire 1 C branch_taken_ex $end
$var wire 1 | exc_flush_ex_mem $end
$var wire 1 { exc_flush_id_ex $end
$var wire 1 z exc_flush_if_id $end
$var wire 1 y exc_flush_mem_wb $end
$var wire 1 x exception_req $end
$var wire 1 v final_flush_ex_mem $end
$var wire 1 u final_flush_id_ex $end
$var wire 1 t final_flush_if_id $end
$var wire 1 s final_flush_mem_wb $end
$var wire 5 (# rs_id [4:0] $end
$var wire 5 )# rt_id [4:0] $end
$var wire 5 *# rt_ex [4:0] $end
$var wire 1 g is_eret $end
$var wire 1 1" ctrl_memread_ex $end
$var reg 1 +# ctrl_nop $end
$var reg 1 m ifid_write $end
$var reg 1 \ pc_write $end
$upscope $end
$scope module u_idex $end
$var wire 1 B clk $end
$var wire 1 u final_flush_id_ex $end
$var wire 6 ,# funct_id [5:0] $end
$var wire 32 -# imm32_id [31:0] $end
$var wire 5 .# rd_id [4:0] $end
$var wire 5 /# rs_id [4:0] $end
$var wire 5 0# rt_id [4:0] $end
$var wire 5 1# shamt_id [4:0] $end
$var wire 32 2# readdata2_id [31:0] $end
$var wire 32 3# readdata1_id [31:0] $end
$var wire 32 4# pc_plus4_id [31:0] $end
$var wire 2 5# ctrl_wbsrc_id [1:0] $end
$var wire 1 *" ctrl_regwrite_id $end
$var wire 1 ," ctrl_regdst_id $end
$var wire 1 /" ctrl_memwrite_id $end
$var wire 1 2" ctrl_memread_id $end
$var wire 1 5" ctrl_branch_id $end
$var wire 1 7" ctrl_alusrc_id $end
$var wire 2 6# ctrl_aluop_id [1:0] $end
$var wire 1 =" cp0_write_id $end
$var reg 1 <" cp0_write_ex $end
$var reg 2 7# ctrl_aluop_ex [1:0] $end
$var reg 1 6" ctrl_alusrc_ex $end
$var reg 1 4" ctrl_branch_ex $end
$var reg 1 1" ctrl_memread_ex $end
$var reg 1 ." ctrl_memwrite_ex $end
$var reg 1 +" ctrl_regdst_ex $end
$var reg 1 )" ctrl_regwrite_ex $end
$var reg 2 8# ctrl_wbsrc_ex [1:0] $end
$var reg 6 9# funct_ex [5:0] $end
$var reg 32 :# imm32_ex [31:0] $end
$var reg 32 ;# pc_plus4_ex [31:0] $end
$var reg 5 <# rd_ex [4:0] $end
$var reg 32 =# readdata1_ex [31:0] $end
$var reg 32 ># readdata2_ex [31:0] $end
$var reg 5 ?# rs_ex [4:0] $end
$var reg 5 @# rt_ex [4:0] $end
$var reg 5 A# shamt_ex [4:0] $end
$upscope $end
$scope module u_ifid $end
$var wire 1 B clk $end
$var wire 1 t final_flush_if_id $end
$var wire 1 m ifid_write $end
$var wire 32 B# pc_plus4_if [31:0] $end
$var wire 32 C# instr_if [31:0] $end
$var reg 32 D# instr_id [31:0] $end
$var reg 32 E# pc_plus4_id [31:0] $end
$upscope $end
$scope module u_imem $end
$var wire 32 F# pc_if [31:0] $end
$var reg 32 G# instr_if [31:0] $end
$upscope $end
$scope module u_mcu $end
$var wire 6 H# funct_id [5:0] $end
$var wire 6 I# opcode_id [5:0] $end
$var wire 5 J# rs_id [4:0] $end
$var reg 1 =" cp0_write $end
$var reg 2 K# ctrl_aluop [1:0] $end
$var reg 1 7" ctrl_alusrc $end
$var reg 1 5" ctrl_branch $end
$var reg 1 3" ctrl_jump $end
$var reg 1 2" ctrl_memread $end
$var reg 1 /" ctrl_memwrite $end
$var reg 1 ," ctrl_regdst $end
$var reg 1 *" ctrl_regwrite $end
$var reg 2 L# ctrl_wbsrc [1:0] $end
$var reg 1 g is_eret $end
$upscope $end
$scope module u_memwb $end
$var wire 32 M# aluout_mem [31:0] $end
$var wire 1 B clk $end
$var wire 32 N# cp0_readdata_mem [31:0] $end
$var wire 1 (" ctrl_regwrite_mem $end
$var wire 2 O# ctrl_wbsrc_mem [1:0] $end
$var wire 1 s final_flush_mem_wb $end
$var wire 5 P# rd_mem [4:0] $end
$var wire 32 Q# readdata_mem [31:0] $end
$var wire 5 R# writereg_mem [4:0] $end
$var reg 32 S# aluout_wb [31:0] $end
$var reg 32 T# cp0_readdata_wb [31:0] $end
$var reg 1 '" ctrl_regwrite_wb $end
$var reg 2 U# ctrl_wbsrc_wb [1:0] $end
$var reg 5 V# rd_wb [4:0] $end
$var reg 32 W# readdata_wb [31:0] $end
$var reg 5 X# writereg_wb [4:0] $end
$upscope $end
$scope module u_muxop1 $end
$var wire 32 Y# aluout_mem [31:0] $end
$var wire 32 Z# datatowritereg [31:0] $end
$var wire 2 [# forwardA [1:0] $end
$var wire 32 \# readdata1_ex [31:0] $end
$var reg 32 ]# operand1 [31:0] $end
$upscope $end
$scope module u_muxop2 $end
$var wire 32 ^# aluout_mem [31:0] $end
$var wire 32 _# datatowritereg [31:0] $end
$var wire 2 `# forwardB [1:0] $end
$var wire 32 a# readdata2_ex [31:0] $end
$var reg 32 b# operand2_forwarded [31:0] $end
$upscope $end
$scope module u_rf $end
$var wire 1 B clk $end
$var wire 32 c# cp0_writedata [31:0] $end
$var wire 1 '" ctrl_regwrite_wb $end
$var wire 32 d# datatowritereg [31:0] $end
$var wire 32 e# readdata1_id [31:0] $end
$var wire 32 f# readdata2_id [31:0] $end
$var wire 5 g# rs_id [4:0] $end
$var wire 5 h# rt_id [4:0] $end
$var wire 5 i# writereg_wb [4:0] $end
$upscope $end
$upscope $end
$upscope $end
$enddefinitions $end
$comment Show the parameter values. $end
$dumpall
b0 I"
b0 H"
b10 G"
b11 F"
b1 E"
$end
#0
$dumpvars
bx i#
b0 h#
b0 g#
b0 f#
b0 e#
bx d#
bz c#
b0 b#
b0 a#
b0 `#
bx _#
bx ^#
b0 ]#
b0 \#
b0 [#
bx Z#
bx Y#
bx X#
bx W#
bx V#
bx U#
bx T#
bx S#
bx R#
bx Q#
bx P#
bx O#
b0 N#
bx M#
b0 L#
b10 K#
b0 J#
b0 I#
b0 H#
b1000010010000000000011010 G#
b0 F#
b0 E#
b0 D#
b1000010010000000000011010 C#
b100 B#
b0 A#
b0 @#
b0 ?#
b0 >#
b0 =#
b0 <#
b0 ;#
b0 :#
b0 9#
b0 8#
b0 7#
b10 6#
b0 5#
b0 4#
b0 3#
b0 2#
b0 1#
b0 0#
b0 /#
b0 .#
b0 -#
b0 ,#
0+#
b0 *#
b0 )#
b0 (#
b0 '#
b0 &#
b0 %#
b0 $#
bx ##
bx "#
bx !#
bx ~"
bx }"
bx |"
bx {"
bx z"
b0 y"
b0 x"
b0 w"
b0 v"
b0 u"
b0 t"
b0 s"
b0 r"
b11111111111111111111111111111100 q"
0p"
0o"
0n"
0m"
bx l"
bx k"
bx j"
b0 i"
b0 h"
b0 g"
b0 f"
b0 e"
b0 d"
b0 c"
b0 b"
b0 a"
b0 `"
bx _"
b0 ^"
bx ]"
b0 \"
bx ["
bx Z"
b0 Y"
b0 X"
b0 W"
b0 V"
b0 U"
b10 T"
b0 S"
b0 R"
b0 Q"
b10 P"
b0 O"
b0 N"
b0 M"
b0 L"
b0 K"
b0 J"
b0 D"
bx C"
bx B"
b0 A"
b0 @"
b0 ?"
bx >"
0="
0<"
x;"
b10 :"
b10 9"
b0 8"
07"
06"
05"
04"
03"
02"
01"
x0"
0/"
0."
x-"
1,"
0+"
1*"
0)"
x("
x'"
b0 &"
b0 %"
bx $"
bx #"
1""
bx !"
0~
bx }
0|
0{
0z
0y
0x
b0 w
0v
0u
0t
0s
b0 r
b0 q
b0 p
b0 o
b0 n
1m
b0 l
b0 k
b0 j
b0 i
b1000010010000000000011010 h
0g
b0 f
b100 e
b0 d
b0 c
b0 b
b0 a
b11111111111111111111111111111100 `
b0 _
b0 ^
b100 ]
1\
b0 [
b0 Z
b0 Y
bx X
bx W
b0 V
b0 U
b0 T
b0 S
bx R
bx Q
b0 P
b0 O
b0 N
b0 M
bx L
b0 K
b0 J
bx I
b0 H
bx G
bx F
b0 E
b0 D
0C
0B
b0 A
b0 @
b11000 ?
bx >
bx =
bx <
bx ;
bx :
bx 9
bx 8
bx 7
bx 6
bx 5
bx 4
bx 3
b1111000011110000111100001111 2
bx 1
bx 0
bx /
bx .
bx -
bx ,
bx +
bx *
bx )
b0 (
b0 '
b0 &
b1010 %
b1010 $
b0 #
bx "
b0 !
$end
#50000
b1000 e
b10 9"
b10 6#
b10 K#
1*"
1,"
b1000010010000000000011010 f
b1000010010000000000011010 f"
b11010 j
b11010 K"
b11010 -#
b11010 l
b11010 L"
b11010 h"
b11010 o
b11010 i"
b11010 ,#
b11010 H#
b1001 M
b1001 b"
b1001 )#
b1001 0#
b1001 h#
b11000 U
b11000 3#
b11000 e#
b1000 O
b1000 c"
b1000 (#
b1000 /#
b1000 J#
b1000 g#
b1000 :"
b1000 P"
b1000 T"
b0 R
b0 k"
b0 Q#
b100000000010100000000000000001 h
b100000000010100000000000000001 C#
b100000000010100000000000000001 G#
b1000010010000000000011010 A
b1000010010000000000011010 D
b1000010010000000000011010 i
b1000010010000000000011010 g"
b1000010010000000000011010 D#
b100 ^
b100 4#
b100 E#
1)"
b10 8"
b10 S"
b10 7#
1+"
b0 L
b0 }"
b0 X
b0 ["
b0 |"
b0 P#
b0 G
b0 !#
b0 "#
b0 R#
b0 I
b0 Z"
b0 j"
b0 ~"
b0 C"
b0 l"
b0 z"
b0 M#
b0 Y#
b0 ^#
0;"
0("
0-"
b0 $"
b0 {"
b0 O#
00"
b0 >"
b0 T#
b1000 ]
b1000 B#
b100 J"
b100 F#
1B
#100000
0B
#150000
1t
b10 [
b110000 n
b110000 `"
1u
1x
1z
1{
b110000 e
b1 @"
b1 \"
b1 r"
1m"
1~
1""
b0 D"
b0 Q"
b0 t"
17"
b0 9"
b0 6#
b0 K#
1*"
0,"
b0 h
b0 C#
b0 G#
b0 !"
b0 Z#
b0 _#
b0 d#
b1001 :"
b1001 P"
b1001 T"
b1101000 W"
b11000 c
b11000 O"
b11000 ]#
b1101100 A"
b1101100 X"
b10100000000000000001 f
b10100000000000000001 f"
b1 j
b1 K"
b1 -#
b1 l
b1 L"
b1 h"
b1 o
b1 i"
b1 ,#
b1 H#
b1010 M
b1010 b"
b1010 )#
b1010 0#
b1010 h#
b0 U
b0 3#
b0 e#
b0 O
b0 c"
b0 (#
b0 /#
b0 J#
b0 g#
b1000 d
b1000 e"
b1000 I#
b1100 ]
b1100 B#
b1000 J"
b1000 F#
b0 F
b0 ##
b0 X#
b0 i#
b0 W
b0 V#
b0 B"
b0 S#
b0 Q
b0 W#
0'"
b0 #"
b0 U#
1("
b1000 P
b1000 %#
b1000 ?#
b1001 N
b1001 w"
b1001 $#
b1001 *#
b1001 @#
b11010 p
b11010 R"
b11010 9#
b11010 k
b11010 V"
b11010 :#
b11000 V
b11000 =#
b11000 \#
b0 `
b0 q"
b100 _
b100 U"
b100 ;#
b100000000010100000000000000001 A
b100000000010100000000000000001 D
b100000000010100000000000000001 i
b100000000010100000000000000001 g"
b100000000010100000000000000001 D#
b1000 ^
b1000 4#
b1000 E#
1B
#200000
0B
#250000
b110100 e
0t
b0 [
b0 n
b0 `"
0u
0x
0z
0{
b10 9"
b10 6#
b10 K#
1,"
1*"
07"
0m"
0~
b0 f
b0 f"
b0 j
b0 K"
b0 -#
b0 l
b0 L"
b0 h"
b0 o
b0 i"
b0 ,#
b0 H#
b0 M
b0 b"
b0 )#
b0 0#
b0 h#
b0 d
b0 e"
b0 I#
b0 W"
b0 c
b0 O"
b0 ]#
b0 w
b0 Y"
b0 s"
b0 @"
b0 \"
b0 r"
b0 A"
b0 X"
b10 :"
b10 P"
b10 T"
b1000000000110110110100000000000 h
b1000000000110110110100000000000 C#
b1000000000110110110100000000000 G#
b0 A
b0 D
b0 i
b0 g"
b0 D#
b0 ^
b0 4#
b0 E#
b0 P
b0 %#
b0 ?#
b0 N
b0 w"
b0 $#
b0 *#
b0 @#
b0 p
b0 R"
b0 9#
b0 k
b0 V"
b0 :#
b0 V
b0 =#
b0 \#
b11111111111111111111111111111100 `
b11111111111111111111111111111100 q"
b0 _
b0 U"
b0 ;#
0)"
b0 8"
b0 S"
b0 7#
0+"
b1001 L
b1001 }"
1'"
b0 }
b0 _"
b1 ]"
b110100 ]
b110100 B#
b110000 J"
b110000 F#
1B
#300000
0B
#350000
b111000 e
b10 &"
b10 5#
b10 L#
b0 9"
b0 6#
b0 K#
1*"
0,"
b100000000110100000000000000001 h
b100000000110100000000000000001 C#
b100000000110100000000000000001 G#
b1000 :"
b1000 P"
b1000 T"
b110110110100000000000 f
b110110110100000000000 f"
b110100000000000 j
b110100000000000 K"
b110100000000000 -#
b110100000000000 l
b110100000000000 L"
b110100000000000 h"
b1101 Y
b1101 d"
b1101 .#
bx S
bx 2#
bx f#
b11011 M
b11011 b"
b11011 )#
b11011 0#
b11011 h#
b10000 d
b10000 e"
b10000 I#
b111000 ]
b111000 B#
b110100 J"
b110100 F#
b0 L
b0 }"
0("
1)"
b10 8"
b10 S"
b10 7#
1+"
b1000000000110110110100000000000 A
b1000000000110110110100000000000 D
b1000000000110110110100000000000 i
b1000000000110110110100000000000 g"
b1000000000110110110100000000000 D#
b110100 ^
b110100 4#
b110100 E#
1B
#400000
0B
#450000
x""
bx D"
bx Q"
bx t"
b111100 e
17"
b0 &"
b0 5#
b0 L#
1*"
bx b
bx M"
b110100000000000000001 f
b110100000000000000001 f"
b1 j
b1 K"
b1 -#
b1 l
b1 L"
b1 h"
b1 o
b1 i"
b1 ,#
b1 H#
b0 Y
b0 d"
b0 .#
b11010 M
b11010 b"
b11010 )#
b11010 0#
b11010 h#
b1000 d
b1000 e"
b1000 I#
b11010000000000000 W"
bx a
bx b#
b11010000000110100 A"
b11010000000110100 X"
b10 :"
b10 P"
b10 T"
b11011 H
b11011 v"
b10011011110100000000000000101 h
b10011011110100000000000000101 C#
b10011011110100000000000000101 G#
b100000000110100000000000000001 A
b100000000110100000000000000001 D
b100000000110100000000000000001 i
b100000000110100000000000000001 g"
b100000000110100000000000000001 D#
b111000 ^
b111000 4#
b111000 E#
b1101 Z
b1101 x"
b1101 <#
b11011 N
b11011 w"
b11011 $#
b11011 *#
b11011 @#
b110100000000000 k
b110100000000000 V"
b110100000000000 :#
bx E
bx u"
bx T
bx >#
bx a#
b110000 `
b110000 q"
b110100 _
b110100 U"
b110100 ;#
b0 8"
b0 S"
b0 7#
b10 %"
b10 y"
b10 8#
0+"
1("
0'"
b111100 ]
b111100 B#
b111000 J"
b111000 F#
1B
#500000
0B
#550000
b1000000 e
0""
b1 D"
b1 Q"
b1 t"
b1 9"
b1 6#
b1 K#
15"
0*"
07"
b0 h
b0 C#
b0 G#
b1 ?"
b1 ^"
b1 N#
b11010 H
b11010 v"
b100 W"
b111100 A"
b111100 X"
b1 b
b1 M"
b11011110100000000000000101 f
b11011110100000000000000101 f"
b101 j
b101 K"
b101 -#
b101 l
b101 L"
b101 h"
b101 o
b101 i"
b101 ,#
b101 H#
bx U
bx 3#
bx e#
b11011 O
b11011 c"
b11011 (#
b11011 /#
b11011 J#
b11011 g#
b100 d
b100 e"
b100 I#
b1000000 ]
b1000000 B#
b111100 J"
b111100 F#
1'"
b11011 L
b11011 }"
b1101 X
b1101 ["
b1101 |"
b1101 P#
b11011 G
b11011 !#
b11011 "#
b11011 R#
bx I
bx Z"
bx j"
bx ~"
bx C"
bx l"
bx z"
bx M#
bx Y#
bx ^#
b10 $"
b10 {"
b10 O#
b0 Z
b0 x"
b0 <#
b11010 N
b11010 w"
b11010 $#
b11010 *#
b11010 @#
b1 p
b1 R"
b1 9#
b1 k
b1 V"
b1 :#
b110100 `
b110100 q"
b111000 _
b111000 U"
b111000 ;#
16"
b0 %"
b0 y"
b0 8#
b10011011110100000000000000101 A
b10011011110100000000000000101 D
b10011011110100000000000000101 i
b10011011110100000000000000101 g"
b10011011110100000000000000101 D#
b111100 ^
b111100 4#
b111100 E#
1B
#600000
0B
#650000
b1 [
1u
1t
1C
1""
b1 c
b1 O"
b1 ]#
b1 !"
b1 Z#
b1 _#
b1 d#
b1010000 e
1*"
1,"
b10 9"
b10 6#
b10 K#
05"
b0 D"
b0 Q"
b0 t"
b0 f
b0 f"
b0 j
b0 K"
b0 -#
b0 l
b0 L"
b0 h"
b0 o
b0 i"
b0 ,#
b0 H#
b0 S
b0 2#
b0 f#
b0 M
b0 b"
b0 )#
b0 0#
b0 h#
b0 U
b0 3#
b0 e#
b0 O
b0 c"
b0 (#
b0 /#
b0 J#
b0 g#
b0 d
b0 e"
b0 I#
b10100 W"
b1010000 A"
b1010000 X"
b110 :"
b110 P"
b110 T"
b0 ?"
b0 ^"
b0 N#
b1 a
b1 b#
b10 q
b10 '#
b10 `#
b1 r
b1 &#
b1 [#
b0 A
b0 D
b0 i
b0 g"
b0 D#
b1000000 ^
b1000000 4#
b1000000 E#
b11011 P
b11011 %#
b11011 ?#
b101 p
b101 R"
b101 9#
b101 k
b101 V"
b101 :#
bx V
bx =#
bx \#
b111000 `
b111000 q"
b111100 _
b111100 U"
b111100 ;#
0)"
06"
b1 8"
b1 S"
b1 7#
14"
b11010 L
b11010 }"
b0 X
b0 ["
b0 |"
b0 P#
b11010 G
b11010 !#
b11010 "#
b11010 R#
b1 C"
b1 l"
b1 z"
b1 M#
b1 Y#
b1 ^#
b0 $"
b0 {"
b0 O#
b1 >"
b1 T#
b11011 F
b11011 ##
b11011 X#
b11011 i#
b1101 W
b1101 V#
bx B"
bx S#
b10 #"
b10 U#
b1000100 ]
b1000100 B#
b1000000 J"
b1000000 F#
1B
#700000
0B
#750000
b1010100 e
b0 [
0u
0t
b0 c
b0 O"
b0 ]#
b0 b
b0 M"
1""
b0 D"
b0 Q"
b0 t"
b1000000000110100111000000000000 h
b1000000000110100111000000000000 C#
b1000000000110100111000000000000 G#
b0 r
b0 &#
b0 [#
b0 H
b0 v"
b0 q
b0 '#
b0 `#
b0 W"
b0 a
b0 b#
b0 A"
b0 X"
b10 :"
b10 P"
b10 T"
0C
b1010100 ]
b1010100 B#
b1010000 J"
b1010000 F#
b0 >"
b0 T#
b11010 F
b11010 ##
b11010 X#
b11010 i#
b0 W
b0 V#
b1 B"
b1 S#
b0 #"
b0 U#
b0 C"
b0 l"
b0 z"
b0 M#
b0 Y#
b0 ^#
0("
b0 P
b0 %#
b0 ?#
b0 N
b0 w"
b0 $#
b0 *#
b0 @#
b0 p
b0 R"
b0 9#
b0 k
b0 V"
b0 :#
b0 E
b0 u"
b0 T
b0 >#
b0 a#
b0 V
b0 =#
b0 \#
b11111111111111111111111111111100 `
b11111111111111111111111111111100 q"
b0 _
b0 U"
b0 ;#
b0 8"
b0 S"
b0 7#
04"
b1 5
b0 ^
b0 4#
b0 E#
1B
#800000
0B
